до
люди
002 люди множественное число
дети
003 дети множественное число
техника
updated gender id for word техника with gender id 1
004 техника женский род
деньги
005 деньги множественное число
доклад
updated gender id for word доклад with gender id 2
006 доклад мужской род
встреча
updated gender id for word встреча with gender id 1
007 встреча женский род
возможность
updated gender id for word возможность with gender id 1
008 возможность женский род
культура
updated gender id for word культура with gender id 1
009 культура женский род
команда
updated gender id for word команда with gender id 1
010 команда женский род
очередь
updated gender id for word очередь with gender id 1
011 очередь женский род
школа
updated gender id for word школа with gender id 1
012 школа женский род
причина
updated gender id for word причина with gender id 1
013 причина женский род
ребята
014 ребята множественное число
девочка
updated gender id for word девочка with gender id 1
015 девочка женский род
организация
updated gender id for word организация with gender id 1
016 организация женский род
мама
updated gender id for word мама with gender id 1
017 мама женский род
станция
updated gender id for word станция with gender id 1
018 станция женский род
уж
updated gender id for word уж with gender id 2
019 уж мужской род
мнение
updated gender id for word мнение with gender id 3
020 мнение средний род
начало
updated gender id for word начало with gender id 3
021 начало средний род
зал
updated gender id for word зал with gender id 2
022 зал мужской род
предприятие
updated gender id for word предприятие with gender id 3
023 предприятие средний род
отношение
updated gender id for word отношение with gender id 3
024 отношение средний род
бабушка
updated gender id for word бабушка with gender id 1
025 бабушка женский род
ответ
updated gender id for word ответ with gender id 2
026 ответ мужской род
доска
updated gender id for word доска with gender id 1
027 доска женский род
неделя
updated gender id for word неделя with gender id 1
028 неделя женский род
завод
updated gender id for word завод with gender id 2
029 завод мужской род
форма
updated gender id for word форма with gender id 1
030 форма женский род
вещь
updated gender id for word вещь with gender id 1
031 вещь женский род
герой
updated gender id for word герой with gender id 2
032 герой мужской род
съезд
updated gender id for word съезд with gender id 2
033 съезд мужской род
ход
updated gender id for word ход with gender id 2
034 ход мужской род
шаг
updated gender id for word шаг with gender id 2
035 шаг мужской род
клуб
updated gender id for word клуб with gender id 2
036 клуб мужской род
государство
updated gender id for word государство with gender id 3
037 государство средний род
пауза
updated gender id for word пауза with gender id 1
038 пауза женский род
здание
updated gender id for word здание with gender id 3
039 здание средний род
птица
updated gender id for word птица with gender id 1
040 птица женский род
самолёт
updated gender id for word самолёт with gender id 2
041 самолёт мужской род
шофёр
updated gender id for word шофёр with gender id 2
042 шофёр мужской род
решение
updated gender id for word решение with gender id 3
043 решение средний род
произведение
updated gender id for word произведение with gender id 3
044 произведение средний род
результат
updated gender id for word результат with gender id 2
045 результат мужской род
доктор
updated gender id for word доктор with gender id 2
046 доктор мужской род
знание
updated gender id for word знание with gender id 3
047 знание средний род
наука
updated gender id for word наука with gender id 1
048 наука женский род
камень
updated gender id for word камень with gender id 2
049 камень мужской род
развитие
updated gender id for word развитие with gender id 3
050 развитие средний род
бог
updated gender id for word бог with gender id 2
051 бог мужской род
общество
updated gender id for word общество with gender id 3
052 общество средний род
условие
updated gender id for word условие with gender id 3
053 условие средний род
солдат
updated gender id for word солдат with gender id 2
054 солдат мужской род
революция
updated gender id for word революция with gender id 1
055 революция женский род
область
updated gender id for word область with gender id 1
056 область женский род
власть
updated gender id for word власть with gender id 1
057 власть женский род
судьба
updated gender id for word судьба with gender id 1
058 судьба женский род
действие
updated gender id for word действие with gender id 3
059 действие средний род
энергия
updated gender id for word энергия with gender id 1
060 энергия женский род
ряд
updated gender id for word ряд with gender id 2
061 ряд мужской род
положение
updated gender id for word положение with gender id 3
062 положение средний род
век
updated gender id for word век with gender id 2
063 век мужской род
генерал
updated gender id for word генерал with gender id 2
064 генерал мужской род
интерес
updated gender id for word интерес with gender id 2
065 интерес мужской род
материал
updated gender id for word материал with gender id 2
066 материал мужской род
цель
updated gender id for word цель with gender id 1
067 цель женский род
огонь
updated gender id for word огонь with gender id 2
068 огонь мужской род
закон
updated gender id for word закон with gender id 2
069 закон мужской род
природа
updated gender id for word природа with gender id 1
070 природа женский род
масса
updated gender id for word масса with gender id 1
071 масса женский род
бой
updated gender id for word бой with gender id 2
072 бой мужской род
луч
updated gender id for word луч with gender id 2
073 луч мужской род
волна
updated gender id for word волна with gender id 1
074 волна женский род
процесс
updated gender id for word процесс with gender id 2
075 процесс мужской род
система
updated gender id for word система with gender id 1
076 система женский род
лист
updated gender id for word лист with gender id 2
077 лист мужской род
ребёнок
updated gender id for word ребёнок with gender id 2
078 ребёнок мужской род
связь
updated gender id for word связь with gender id 1
079 связь женский род
мужчина
updated gender id for word мужчина with gender id 2
080 мужчина мужской род
промышленность
updated gender id for word промышленность with gender id 1
081 промышленность женский род
учёный
updated gender id for word учёный with gender id 2
082 учёный мужской род
правительство
updated gender id for word правительство with gender id 3
083 правительство средний род
чёрт
updated gender id for word чёрт with gender id 2
084 чёрт мужской род
качество
updated gender id for word качество with gender id 3
085 качество средний род
офицер
updated gender id for word офицер with gender id 2
086 офицер мужской род
проблема
updated gender id for word проблема with gender id 1
087 проблема женский род
коммунизм
updated gender id for word коммунизм with gender id 2
088 коммунизм мужской род
корабль
updated gender id for word корабль with gender id 2
089 корабль мужской род
класс
updated gender id for word класс with gender id 2
090 класс мужской род
километр
updated gender id for word километр with gender id 2
091 километр мужской род
число
updated gender id for word число with gender id 3
092 число средний род
база
updated gender id for word база with gender id 1
093 база женский род
палец
updated gender id for word палец with gender id 2
094 палец мужской род
количество
updated gender id for word количество with gender id 3
095 количество средний род
коммунист
updated gender id for word коммунист with gender id 2
096 коммунист мужской род
победа
updated gender id for word победа with gender id 1
097 победа женский род
река
updated gender id for word река with gender id 1
098 река женский род
гора
updated gender id for word гора with gender id 1
099 гора женский род
политика
updated gender id for word политика with gender id 1
100 политика женский род
производство
updated gender id for word производство with gender id 3
101 производство средний род
богатый
updated gender id for word богатый with gender id 2
102 богатый мужской род
строительство
updated gender id for word строительство with gender id 3
103 строительство средний род
значение
updated gender id for word значение with gender id 3
104 значение средний род
председатель
updated gender id for word председатель with gender id 2
105 председатель мужской род
характер
updated gender id for word характер with gender id 2
106 характер мужской род
изделие
updated gender id for word изделие with gender id 3
107 изделие средний род
смерть
updated gender id for word смерть with gender id 1
108 смерть женский род
статья
updated gender id for word статья with gender id 1
109 статья женский род
счёт
updated gender id for word счёт with gender id 2
110 счёт мужской род
средство
updated gender id for word средство with gender id 3
111 средство средний род
пример
updated gender id for word пример with gender id 2
112 пример мужской род
скорость
updated gender id for word скорость with gender id 1
113 скорость женский род
факт
updated gender id for word факт with gender id 2
114 факт мужской род
чай
updated gender id for word чай with gender id 2
115 чай мужской род
явление
updated gender id for word явление with gender id 3
116 явление средний род
точка
updated gender id for word точка with gender id 1
117 точка женский род
ум
updated gender id for word ум with gender id 2
118 ум мужской род
событие
updated gender id for word событие with gender id 3
119 событие средний род
кабинет
updated gender id for word кабинет with gender id 2
120 кабинет мужской род
враг
updated gender id for word враг with gender id 2
121 враг мужской род
деятельность
updated gender id for word деятельность with gender id 1
122 деятельность женский род
трубка
updated gender id for word трубка with gender id 1
123 трубка женский род
температура
updated gender id for word температура with gender id 1
124 температура женский род
состояние
updated gender id for word состояние with gender id 3
125 состояние средний род
счастье
updated gender id for word счастье with gender id 3
126 счастье средний род
смысл
updated gender id for word смысл with gender id 2
127 смысл мужской род
рубль
updated gender id for word рубль with gender id 2
128 рубль мужской род
автор
updated gender id for word автор with gender id 2
129 автор мужской род
большинство
updated gender id for word большинство with gender id 3
130 большинство средний род
течение
updated gender id for word течение with gender id 3
131 течение средний род
оружие
updated gender id for word оружие with gender id 3
132 оружие средний род
муж
updated gender id for word муж with gender id 2
133 муж мужской род
идея
updated gender id for word идея with gender id 1
134 идея женский род
усилие
updated gender id for word усилие with gender id 3
135 усилие средний род
линия
updated gender id for word линия with gender id 1
136 линия женский род
искусство
updated gender id for word искусство with gender id 3
137 искусство средний род
состав
updated gender id for word состав with gender id 2
138 состав мужской род
капитализм
updated gender id for word капитализм with gender id 2
139 капитализм мужской род
литература
updated gender id for word литература with gender id 1
140 литература женский род
страница
updated gender id for word страница with gender id 1
141 страница женский род
рост
updated gender id for word рост with gender id 2
142 рост мужской род
корень
updated gender id for word корень with gender id 2
143 корень мужской род
небо
updated gender id for word небо with gender id 3
144 небо средний род
свойство
updated gender id for word свойство with gender id 3
145 свойство средний род
население
updated gender id for word население with gender id 3
146 население средний род
стекло
updated gender id for word стекло with gender id 3
147 стекло средний род
театр
updated gender id for word театр with gender id 2
148 театр мужской род
надежда
updated gender id for word надежда with gender id 1
149 надежда женский род
край
updated gender id for word край with gender id 2
150 край мужской род
степь
updated gender id for word степь with gender id 1
151 степь женский род
цвет
updated gender id for word цвет with gender id 2
152 цвет мужской род
основа
updated gender id for word основа with gender id 1
153 основа женский род
круг
updated gender id for word круг with gender id 2
154 круг мужской род
момент
updated gender id for word момент with gender id 2
155 момент мужской род
строй
updated gender id for word строй with gender id 2
156 строй мужской род
дочь
updated gender id for word дочь with gender id 1
157 дочь женский род
министр
updated gender id for word министр with gender id 2
158 министр мужской род
программа
updated gender id for word программа with gender id 1
159 программа женский род
кровь
updated gender id for word кровь with gender id 1
160 кровь женский род
свобода
updated gender id for word свобода with gender id 1
161 свобода женский род
фронт
updated gender id for word фронт with gender id 2
162 фронт мужской род
богатство
updated gender id for word богатство with gender id 3
163 богатство средний род
глубина
updated gender id for word глубина with gender id 1
164 глубина женский род
управление
updated gender id for word управление with gender id 3
165 управление средний род
слава
updated gender id for word слава with gender id 1
166 слава женский род
весна
updated gender id for word весна with gender id 1
167 весна женский род
пол
updated gender id for word пол with gender id 2
168 пол мужской род
процент
updated gender id for word процент with gender id 2
169 процент мужской род
родина
updated gender id for word родина with gender id 1
170 родина женский род
сцена
updated gender id for word сцена with gender id 1
171 сцена женский род
метр
updated gender id for word метр with gender id 2
172 метр мужской род
воля
updated gender id for word воля with gender id 1
173 воля женский род
зуб
updated gender id for word зуб with gender id 2
174 зуб мужской род
метод
updated gender id for word метод with gender id 2
175 метод мужской род
песок
updated gender id for word песок with gender id 2
176 песок мужской род
уровень
updated gender id for word уровень with gender id 2
177 уровень мужской род
источник
updated gender id for word источник with gender id 2
178 источник мужской род
половина
updated gender id for word половина with gender id 1
179 половина женский род
служба
updated gender id for word служба with gender id 1
180 служба женский род
село
updated gender id for word село with gender id 3
181 село средний род
образование
updated gender id for word образование with gender id 3
182 образование средний род
тонна
updated gender id for word тонна with gender id 1
183 тонна женский род
зрение
updated gender id for word зрение with gender id 3
184 зрение средний род
семя
updated gender id for word семя with gender id 3
185 семя средний род
флот
updated gender id for word флот with gender id 2
186 флот мужской род
беседа
updated gender id for word беседа with gender id 1
187 беседа женский род
лампа
updated gender id for word лампа with gender id 1
188 лампа женский род
продукция
updated gender id for word продукция with gender id 1
189 продукция женский род
центр
updated gender id for word центр with gender id 2
190 центр мужской род
приём
updated gender id for word приём with gender id 2
191 приём мужской род
телефон
updated gender id for word телефон with gender id 2
192 телефон мужской род
выход
updated gender id for word выход with gender id 2
193 выход мужской род
стих
updated gender id for word стих with gender id 2
194 стих мужской род
период
updated gender id for word период with gender id 2
195 период мужской род
дружба
updated gender id for word дружба with gender id 1
196 дружба женский род
степень
updated gender id for word степень with gender id 1
197 степень женский род
карта
updated gender id for word карта with gender id 1
198 карта женский род
направление
updated gender id for word направление with gender id 3
199 направление средний род
человечество
updated gender id for word человечество with gender id 3
200 человечество средний род
предложение
updated gender id for word предложение with gender id 3
201 предложение средний род
элемент
updated gender id for word элемент with gender id 2
202 элемент мужской род
печь
updated gender id for word печь with gender id 1
203 печь женский род
глава
updated gender id for word глава with gender id 1
204 глава женский род
способ
updated gender id for word способ with gender id 2
205 способ мужской род
церковь
updated gender id for word церковь with gender id 1
206 церковь женский род
честь
updated gender id for word честь with gender id 1
207 честь женский род
память
updated gender id for word память with gender id 1
208 память женский род
совещание
updated gender id for word совещание with gender id 3
209 совещание средний род
предмет
updated gender id for word предмет with gender id 2
210 предмет мужской род
слеза
updated gender id for word слеза with gender id 1
211 слеза женский род
дно
updated gender id for word дно with gender id 3
212 дно средний род
магазин
updated gender id for word магазин with gender id 2
213 магазин мужской род
создание
updated gender id for word создание with gender id 3
214 создание средний род
старуха
updated gender id for word старуха with gender id 1
215 старуха женский род
карман
updated gender id for word карман with gender id 2
216 карман мужской род
музей
updated gender id for word музей with gender id 2
217 музей мужской род
пасть
updated gender id for word пасть with gender id 1
218 пасть женский род
поверхность
updated gender id for word поверхность with gender id 1
219 поверхность женский род
колено
updated gender id for word колено with gender id 2
220 колено мужской род
страх
updated gender id for word страх with gender id 2
221 страх мужской род
высота
updated gender id for word высота with gender id 1
222 высота женский род
музыка
updated gender id for word музыка with gender id 1
223 музыка женский род
остров
updated gender id for word остров with gender id 2
224 остров мужской род
волос
updated gender id for word волос with gender id 2
225 волос мужской род
225 волос множественное число
воспитание
updated gender id for word воспитание with gender id 3
226 воспитание средний род
дитя
updated gender id for word дитя with gender id 3
227 дитя средний род
луна
updated gender id for word луна with gender id 1
228 луна женский род
кулак
updated gender id for word кулак with gender id 2
229 кулак мужской род
кухня
updated gender id for word кухня with gender id 1
230 кухня женский род
любовь
updated gender id for word любовь with gender id 1
231 любовь женский род
рисунок
updated gender id for word рисунок with gender id 2
232 рисунок мужской род
слой
updated gender id for word слой with gender id 2
233 слой мужской род
тема
updated gender id for word тема with gender id 1
234 тема женский род
цена
updated gender id for word цена with gender id 1
235 цена женский род
конь
updated gender id for word конь with gender id 2
236 конь мужской род
теория
updated gender id for word теория with gender id 1
237 теория женский род
баба
updated gender id for word баба with gender id 1
238 баба женский род
238 баба пренебрежительно
род
updated gender id for word род with gender id 2
239 род мужской род
господь
updated gender id for word господь with gender id 2
240 господь мужской род
губа
updated gender id for word губа with gender id 1
241 губа женский род
руководитель
updated gender id for word руководитель with gender id 2
242 руководитель мужской род
тётя
updated gender id for word тётя with gender id 1
243 тётя женский род
вывод
updated gender id for word вывод with gender id 2
244 вывод мужской род
зерно
updated gender id for word зерно with gender id 3
245 зерно средний род
молодёжь
updated gender id for word молодёжь with gender id 1
246 молодёжь женский род
246 молодёжь собир.
растение
updated gender id for word растение with gender id 3
247 растение средний род
старик
updated gender id for word старик with gender id 2
248 старик мужской род
поход
updated gender id for word поход with gender id 2
249 поход мужской род
спина
updated gender id for word спина with gender id 1
250 спина женский род
экономика
updated gender id for word экономика with gender id 1
251 экономика женский род
дух
updated gender id for word дух with gender id 2
252 дух мужской род
океан
updated gender id for word океан with gender id 2
253 океан мужской род
запас
updated gender id for word запас with gender id 2
254 запас мужской род
министерство
updated gender id for word министерство with gender id 3
255 министерство средний род
польза
updated gender id for word польза with gender id 1
256 польза женский род
плод
updated gender id for word плод with gender id 2
257 плод мужской род
радио
updated gender id for word радио with gender id 3
258 радио средний род
существование
updated gender id for word существование with gender id 3
259 существование средний род
основание
updated gender id for word основание with gender id 3
260 основание средний род
газ
updated gender id for word газ with gender id 2
261 газ мужской род
орудие
updated gender id for word орудие with gender id 3
262 орудие средний род
радость
updated gender id for word радость with gender id 1
263 радость женский род
том
updated gender id for word том with gender id 2
264 том мужской род
исследование
updated gender id for word исследование with gender id 3
265 исследование средний род
ладонь
updated gender id for word ладонь with gender id 1
266 ладонь женский род
позиция
updated gender id for word позиция with gender id 1
267 позиция женский род
срок
updated gender id for word срок with gender id 2
268 срок мужской род
ухо
updated gender id for word ухо with gender id 3
269 ухо средний род
шум
updated gender id for word шум with gender id 2
270 шум мужской род
аппарат
updated gender id for word аппарат with gender id 2
271 аппарат мужской род
капитал
updated gender id for word капитал with gender id 2
272 капитал мужской род
площадь
updated gender id for word площадь with gender id 1
273 площадь женский род
поезд
updated gender id for word поезд with gender id 2
274 поезд мужской род
профессор
updated gender id for word профессор with gender id 2
275 профессор мужской род
соль
updated gender id for word соль with gender id 1
276 соль женский род
сон
updated gender id for word сон with gender id 2
277 сон мужской род
тень
updated gender id for word тень with gender id 1
278 тень женский род
дурак
updated gender id for word дурак with gender id 2
279 дурак мужской род
лошадь
updated gender id for word лошадь with gender id 1
280 лошадь женский род
пшеница
updated gender id for word пшеница with gender id 1
281 пшеница женский род
эпоха
updated gender id for word эпоха with gender id 1
282 эпоха женский род
беда
updated gender id for word беда with gender id 1
283 беда женский род
звезда
updated gender id for word звезда with gender id 1
284 звезда женский род
размер
updated gender id for word размер with gender id 2
285 размер мужской род
атмосфера
updated gender id for word атмосфера with gender id 1
286 атмосфера женский род
лодка
updated gender id for word лодка with gender id 1
287 лодка женский род
название
updated gender id for word название with gender id 3
288 название средний род
сапог
updated gender id for word сапог with gender id 2
289 сапог мужской род
журнал
updated gender id for word журнал with gender id 2
290 журнал мужской род
телевизор
updated gender id for word телевизор with gender id 2
291 телевизор мужской род
ракета
updated gender id for word ракета with gender id 1
292 ракета женский род
способность
updated gender id for word способность with gender id 1
293 способность женский род
академия
updated gender id for word академия with gender id 1
294 академия женский род
впечатление
updated gender id for word впечатление with gender id 3
295 впечатление средний род
пароход
updated gender id for word пароход with gender id 2
296 пароход мужской род
след
updated gender id for word след with gender id 2
297 след мужской род
удар
updated gender id for word удар with gender id 2
298 удар мужской род
нож
updated gender id for word нож with gender id 2
299 нож мужской род
грудь
updated gender id for word грудь with gender id 1
300 грудь женский род
моряк
updated gender id for word моряк with gender id 2
301 моряк мужской род
принцип
updated gender id for word принцип with gender id 2
302 принцип мужской род
тайна
updated gender id for word тайна with gender id 1
303 тайна женский род
дворец
updated gender id for word дворец with gender id 2
304 дворец мужской род
золото
updated gender id for word золото with gender id 3
305 золото средний род
открытие
updated gender id for word открытие with gender id 3
306 открытие средний род
длина
updated gender id for word длина with gender id 1
307 длина женский род
повышение
updated gender id for word повышение with gender id 3
308 повышение средний род
участие
updated gender id for word участие with gender id 3
309 участие средний род
приказ
updated gender id for word приказ with gender id 2
310 приказ мужской род
роман
updated gender id for word роман with gender id 2
311 роман мужской род
смех
updated gender id for word смех with gender id 2
312 смех мужской род
тон
updated gender id for word тон with gender id 2
313 тон мужской род
деталь
updated gender id for word деталь with gender id 1
314 деталь женский род
объём
updated gender id for word объём with gender id 2
315 объём мужской род
курс
updated gender id for word курс with gender id 2
316 курс мужской род
почва
updated gender id for word почва with gender id 1
317 почва женский род
пыль
updated gender id for word пыль with gender id 1
318 пыль женский род
анализ
updated gender id for word анализ with gender id 2
319 анализ мужской род
влияние
updated gender id for word влияние with gender id 3
320 влияние средний род
руководство
updated gender id for word руководство with gender id 3
321 руководство средний род
граница
updated gender id for word граница with gender id 1
322 граница женский род
защита
updated gender id for word защита with gender id 1
323 защита женский род
кусок
updated gender id for word кусок with gender id 2
324 кусок мужской род
молчание
updated gender id for word молчание with gender id 3
325 молчание средний род
пара
updated gender id for word пара with gender id 1
326 пара женский род
платок
updated gender id for word платок with gender id 2
327 платок мужской род
предел
updated gender id for word предел with gender id 2
328 предел мужской род
существо
updated gender id for word существо with gender id 3
329 существо средний род
тишина
updated gender id for word тишина with gender id 1
330 тишина женский род
товар
updated gender id for word товар with gender id 2
331 товар мужской род
вершина
updated gender id for word вершина with gender id 1
332 вершина женский род
взрыв
updated gender id for word взрыв with gender id 2
333 взрыв мужской род
деятель
updated gender id for word деятель with gender id 2
334 деятель мужской род
дождь
updated gender id for word дождь with gender id 2
335 дождь мужской род
роль
updated gender id for word роль with gender id 1
336 роль женский род
сестра
updated gender id for word сестра with gender id 1
337 сестра женский род
столица
updated gender id for word столица with gender id 1
338 столица женский род
фигура
updated gender id for word фигура with gender id 1
339 фигура женский род
царь
updated gender id for word царь with gender id 2
340 царь мужской род
изменение
updated gender id for word изменение with gender id 3
341 изменение средний род
особенность
updated gender id for word особенность with gender id 1
342 особенность женский род
звонок
updated gender id for word звонок with gender id 2
343 звонок мужской род
испытание
updated gender id for word испытание with gender id 3
344 испытание средний род
необходимость
updated gender id for word необходимость with gender id 1
345 необходимость женский род
обстановка
updated gender id for word обстановка with gender id 1
346 обстановка женский род
печать
updated gender id for word печать with gender id 1
347 печать женский род
повод
updated gender id for word повод with gender id 2
348 повод мужской род
стакан
updated gender id for word стакан with gender id 2
349 стакан мужской род
изучение
updated gender id for word изучение with gender id 3
350 изучение средний род
комиссия
updated gender id for word комиссия with gender id 1
351 комиссия женский род
вес
updated gender id for word вес with gender id 2
352 вес мужской род
врач
updated gender id for word врач with gender id 2
353 врач мужской род
крик
updated gender id for word крик with gender id 2
354 крик мужской род
рот
updated gender id for word рот with gender id 2
355 рот мужской род
собака
updated gender id for word собака with gender id 1
356 собака женский род
туман
updated gender id for word туман with gender id 2
357 туман мужской род
капитан
updated gender id for word капитан with gender id 2
358 капитан мужской род
философия
updated gender id for word философия with gender id 1
359 философия женский род
здоровье
updated gender id for word здоровье with gender id 3
360 здоровье средний род
ошибка
updated gender id for word ошибка with gender id 1
361 ошибка женский род
вагон
updated gender id for word вагон with gender id 2
362 вагон мужской род
канал
updated gender id for word канал with gender id 2
363 канал мужской род
практика
updated gender id for word практика with gender id 1
364 практика женский род
сожаление
updated gender id for word сожаление with gender id 3
365 сожаление средний род
укрепление
updated gender id for word укрепление with gender id 3
366 укрепление средний род
быт
updated gender id for word быт with gender id 2
367 быт мужской род
крыша
updated gender id for word крыша with gender id 1
368 крыша женский род
недостаток
updated gender id for word недостаток with gender id 2
369 недостаток мужской род
отрасль
updated gender id for word отрасль with gender id 1
370 отрасль женский род
поиск
updated gender id for word поиск with gender id 2
371 поиск мужской род
порт
updated gender id for word порт with gender id 2
372 порт мужской род
свидание
updated gender id for word свидание with gender id 3
373 свидание средний род
требование
updated gender id for word требование with gender id 3
374 требование средний род
черта
updated gender id for word черта with gender id 1
375 черта женский род
штат
updated gender id for word штат with gender id 2
376 штат мужской род
записка
updated gender id for word записка with gender id 1
377 записка женский род
озеро
updated gender id for word озеро with gender id 3
378 озеро средний род
сознание
updated gender id for word сознание with gender id 3
379 сознание средний род
тепло
updated gender id for word тепло with gender id 3
380 тепло средний род
пространство
updated gender id for word пространство with gender id 3
381 пространство средний род
документ
updated gender id for word документ with gender id 2
382 документ мужской род
продукт
updated gender id for word продукт with gender id 2
383 продукт мужской род
секунда
updated gender id for word секунда with gender id 1
384 секунда женский род
достижение
updated gender id for word достижение with gender id 3
385 достижение средний род
мотор
updated gender id for word мотор with gender id 2
386 мотор мужской род
независимость
updated gender id for word независимость with gender id 1
387 независимость женский род
представление
updated gender id for word представление with gender id 3
388 представление средний род
применение
updated gender id for word применение with gender id 3
389 применение средний род
трудность
updated gender id for word трудность with gender id 1
390 трудность женский род
удовольствие
updated gender id for word удовольствие with gender id 3
391 удовольствие средний род
боец
updated gender id for word боец with gender id 2
392 боец мужской род
мечта
updated gender id for word мечта with gender id 1
393 мечта женский род
опасность
updated gender id for word опасность with gender id 1
394 опасность женский род
полк
updated gender id for word полк with gender id 2
395 полк мужской род
попытка
updated gender id for word попытка with gender id 1
396 попытка женский род
рис
updated gender id for word рис with gender id 2
397 рис мужской род
уголь
updated gender id for word уголь with gender id 2
398 уголь мужской род
учреждение
updated gender id for word учреждение with gender id 3
399 учреждение средний род
щека
updated gender id for word щека with gender id 1
400 щека женский род
возраст
updated gender id for word возраст with gender id 2
401 возраст мужской род
дым
updated gender id for word дым with gender id 2
402 дым мужской род
желание
updated gender id for word желание with gender id 3
403 желание средний род
забота
updated gender id for word забота with gender id 1
404 забота женский род
использование
updated gender id for word использование with gender id 3
405 использование средний род
красота
updated gender id for word красота with gender id 1
406 красота женский род
президент
updated gender id for word президент with gender id 2
407 президент мужской род
рыба
updated gender id for word рыба with gender id 1
408 рыба женский род
темнота
updated gender id for word темнота with gender id 1
409 темнота женский род
трава
updated gender id for word трава with gender id 1
410 трава женский род
улучшение
updated gender id for word улучшение with gender id 3
411 улучшение средний род
улыбка
updated gender id for word улыбка with gender id 1
412 улыбка женский род
учение
updated gender id for word учение with gender id 3
413 учение средний род
лоб
updated gender id for word лоб with gender id 2
414 лоб мужской род
поколение
updated gender id for word поколение with gender id 3
415 поколение средний род
выступление
updated gender id for word выступление with gender id 3
416 выступление средний род
юноша
updated gender id for word юноша with gender id 2
417 юноша мужской род
стул
updated gender id for word стул with gender id 2
418 стул мужской род
фотография
updated gender id for word фотография with gender id 1
419 фотография женский род
цепь
updated gender id for word цепь with gender id 1
420 цепь женский род
восстание
updated gender id for word восстание with gender id 3
421 восстание средний род
задание
updated gender id for word задание with gender id 3
422 задание средний род
октябрь
updated gender id for word октябрь with gender id 2
423 октябрь мужской род
содержание
updated gender id for word содержание with gender id 3
424 содержание средний род
вера
updated gender id for word вера with gender id 1
425 вера женский род
долг
updated gender id for word долг with gender id 2
426 долг мужской род
зима
updated gender id for word зима with gender id 1
427 зима женский род
переход
updated gender id for word переход with gender id 2
428 переход мужской род
портрет
updated gender id for word портрет with gender id 2
429 портрет мужской род
чудо
updated gender id for word чудо with gender id 3
430 чудо средний род
бок
updated gender id for word бок with gender id 2
431 бок мужской род
настроение
updated gender id for word настроение with gender id 3
432 настроение средний род
облако
updated gender id for word облако with gender id 3
433 облако средний род
понятие
updated gender id for word понятие with gender id 3
434 понятие средний род
поток
updated gender id for word поток with gender id 2
435 поток мужской род
стоимость
updated gender id for word стоимость with gender id 1
436 стоимость женский род
стремление
updated gender id for word стремление with gender id 3
437 стремление средний род
территория
updated gender id for word территория with gender id 1
438 территория женский род
диван
updated gender id for word диван with gender id 2
439 диван мужской род
образец
updated gender id for word образец with gender id 2
440 образец мужской род
суд
updated gender id for word суд with gender id 2
441 суд мужской род
автомобиль
updated gender id for word автомобиль with gender id 2
442 автомобиль мужской род
адрес
updated gender id for word адрес with gender id 2
443 адрес мужской род
расчёт
updated gender id for word расчёт with gender id 2
444 расчёт мужской род
болезнь
updated gender id for word болезнь with gender id 1
445 болезнь женский род
железо
updated gender id for word железо with gender id 3
446 железо средний род
шея
updated gender id for word шея with gender id 1
447 шея женский род
договор
updated gender id for word договор with gender id 2
448 договор мужской род
январь
updated gender id for word январь with gender id 2
449 январь мужской род
подготовка
updated gender id for word подготовка with gender id 1
450 подготовка женский род
редакция
updated gender id for word редакция with gender id 1
451 редакция женский род
собственность
updated gender id for word собственность with gender id 1
452 собственность женский род
угроза
updated gender id for word угроза with gender id 1
453 угроза женский род
груз
updated gender id for word груз with gender id 2
454 груз мужской род
кольцо
updated gender id for word кольцо with gender id 3
455 кольцо средний род
мешок
updated gender id for word мешок with gender id 2
456 мешок мужской род
мост
updated gender id for word мост with gender id 2
457 мост мужской род
смена
updated gender id for word смена with gender id 1
458 смена женский род
снимок
updated gender id for word снимок with gender id 2
459 снимок мужской род
телега
updated gender id for word телега with gender id 1
460 телега женский род
тип
updated gender id for word тип with gender id 2
461 тип мужской род
весть
updated gender id for word весть with gender id 1
462 весть женский род
водка
updated gender id for word водка with gender id 1
463 водка женский род
мораль
updated gender id for word мораль with gender id 1
464 мораль женский род
обида
updated gender id for word обида with gender id 1
465 обида женский род
соединение
updated gender id for word соединение with gender id 3
466 соединение средний род
толпа
updated gender id for word толпа with gender id 1
467 толпа женский род
назначение
updated gender id for word назначение with gender id 3
468 назначение средний род
осень
updated gender id for word осень with gender id 1
469 осень женский род
пар
updated gender id for word пар with gender id 2
470 пар мужской род
держава
updated gender id for word держава with gender id 1
471 держава женский род
колесо
updated gender id for word колесо with gender id 3
472 колесо средний род
пропасть
updated gender id for word пропасть with gender id 1
473 пропасть женский род
выражение
updated gender id for word выражение with gender id 3
474 выражение средний род
горе
updated gender id for word горе with gender id 3
475 горе средний род
детство
updated gender id for word детство with gender id 3
476 детство средний род
доля
updated gender id for word доля with gender id 1
477 доля женский род
итог
updated gender id for word итог with gender id 2
478 итог мужской род
коридор
updated gender id for word коридор with gender id 2
479 коридор мужской род
среда
updated gender id for word среда with gender id 1
480 среда женский род
училище
updated gender id for word училище with gender id 3
481 училище средний род
бомба
updated gender id for word бомба with gender id 1
482 бомба женский род
бюро
updated gender id for word бюро with gender id 3
483 бюро средний род
дедушка
updated gender id for word дедушка with gender id 2
484 дедушка мужской род
действительность
updated gender id for word действительность with gender id 1
485 действительность женский род
заседание
updated gender id for word заседание with gender id 3
486 заседание средний род
ключ
updated gender id for word ключ with gender id 2
487 ключ мужской род
кресло
updated gender id for word кресло with gender id 3
488 кресло средний род
погода
updated gender id for word погода with gender id 1
489 погода женский род
режим
updated gender id for word режим with gender id 2
490 режим мужской род
сравнение
updated gender id for word сравнение with gender id 3
491 сравнение средний род
танец
updated gender id for word танец with gender id 2
492 танец мужской род
добро
updated gender id for word добро with gender id 3
493 добро средний род
занавес
updated gender id for word занавес with gender id 2
494 занавес мужской род
обстоятельство
updated gender id for word обстоятельство with gender id 3
495 обстоятельство средний род
спичка
updated gender id for word спичка with gender id 1
496 спичка женский род
торговля
updated gender id for word торговля with gender id 1
497 торговля женский род
установка
updated gender id for word установка with gender id 1
498 установка женский род
звание
updated gender id for word звание with gender id 3
499 звание средний род
март
updated gender id for word март with gender id 2
500 март мужской род
множество
updated gender id for word множество with gender id 3
501 множество средний род
противоречие
updated gender id for word противоречие with gender id 3
502 противоречие средний род
сомнение
updated gender id for word сомнение with gender id 3
503 сомнение средний род
темп
updated gender id for word темп with gender id 2
504 темп мужской род
труба
updated gender id for word труба with gender id 1
505 труба женский род
тюрьма
updated gender id for word тюрьма with gender id 1
506 тюрьма женский род
порог
updated gender id for word порог with gender id 2
507 порог мужской род
просьба
updated gender id for word просьба with gender id 1
508 просьба женский род
творчество
updated gender id for word творчество with gender id 3
509 творчество средний род
университет
updated gender id for word университет with gender id 2
510 университет мужской род
академик
updated gender id for word академик with gender id 2
511 академик мужской род
битва
updated gender id for word битва with gender id 1
512 битва женский род
капля
updated gender id for word капля with gender id 1
513 капля женский род
контроль
updated gender id for word контроль with gender id 2
514 контроль мужской род
многое
updated gender id for word многое with gender id 3
515 многое средний род
осуществление
updated gender id for word осуществление with gender id 3
516 осуществление средний род
прогресс
updated gender id for word прогресс with gender id 2
517 прогресс мужской род
пункт
updated gender id for word пункт with gender id 2
518 пункт мужской род
уважение
updated gender id for word уважение with gender id 3
519 уважение средний род
ужас
updated gender id for word ужас with gender id 2
520 ужас мужской род
шар
updated gender id for word шар with gender id 2
521 шар мужской род
дама
updated gender id for word дама with gender id 1
522 дама женский род
демократия
updated gender id for word демократия with gender id 1
523 демократия женский род
истина
updated gender id for word истина with gender id 1
524 истина женский род
поведение
updated gender id for word поведение with gender id 3
525 поведение средний род
потребность
updated gender id for word потребность with gender id 1
526 потребность женский род
рукав
updated gender id for word рукав with gender id 2
527 рукав мужской род
фамилия
updated gender id for word фамилия with gender id 1
528 фамилия женский род
библиотека
updated gender id for word библиотека with gender id 1
529 библиотека женский род
печка
updated gender id for word печка with gender id 1
530 печка женский род
планета
updated gender id for word планета with gender id 1
531 планета женский род
правило
updated gender id for word правило with gender id 3
532 правило средний род
шутка
updated gender id for word шутка with gender id 1
533 шутка женский род
ящик
updated gender id for word ящик with gender id 2
534 ящик мужской род
авторитет
updated gender id for word авторитет with gender id 2
535 авторитет мужской род
зверь
updated gender id for word зверь with gender id 2
536 зверь мужской род
звук
updated gender id for word звук with gender id 2
537 звук мужской род
питание
updated gender id for word питание with gender id 3
538 питание средний род
полоса
updated gender id for word полоса with gender id 1
539 полоса женский род
святой
updated gender id for word святой with gender id 2
540 святой мужской род
updated gender id for word святой with gender id 1
540 святой женский род
середина
updated gender id for word середина with gender id 1
541 середина женский род
сутки
542 сутки множественное число
шапка
updated gender id for word шапка with gender id 1
543 шапка женский род
агрессия
updated gender id for word агрессия with gender id 1
544 агрессия женский род
зло
updated gender id for word зло with gender id 3
545 зло средний род
крыльцо
updated gender id for word крыльцо with gender id 3
546 крыльцо средний род
обед
updated gender id for word обед with gender id 2
547 обед мужской род
поддержка
updated gender id for word поддержка with gender id 1
548 поддержка женский род
подъём
updated gender id for word подъём with gender id 2
549 подъём мужской род
проект
updated gender id for word проект with gender id 2
550 проект мужской род
сообщение
updated gender id for word сообщение with gender id 3
551 сообщение средний род
сущность
updated gender id for word сущность with gender id 1
552 сущность женский род
цифра
updated gender id for word цифра with gender id 1
553 цифра женский род
вооружение
updated gender id for word вооружение with gender id 3
554 вооружение средний род
восток
updated gender id for word восток with gender id 2
555 восток мужской род
запах
updated gender id for word запах with gender id 2
556 запах мужской род
карандаш
updated gender id for word карандаш with gender id 2
557 карандаш мужской род
корова
updated gender id for word корова with gender id 1
558 корова женский род
корпус
updated gender id for word корпус with gender id 2
559 корпус мужской род
краска
updated gender id for word краска with gender id 1
560 краска женский род
май
updated gender id for word май with gender id 2
561 май мужской род
передача
updated gender id for word передача with gender id 1
562 передача женский род
пояс
updated gender id for word пояс with gender id 2
563 пояс мужской род
горизонт
updated gender id for word горизонт with gender id 2
564 горизонт мужской род
ответственность
updated gender id for word ответственность with gender id 1
565 ответственность женский род
пост
updated gender id for word пост with gender id 2
566 пост мужской род
расстояние
updated gender id for word расстояние with gender id 3
567 расстояние средний род
сведение
updated gender id for word сведение with gender id 3
568 сведение средний род
север
updated gender id for word север with gender id 2
569 север мужской род
совесть
updated gender id for word совесть with gender id 1
570 совесть женский род
традиция
updated gender id for word традиция with gender id 1
571 традиция женский род
фраза
updated gender id for word фраза with gender id 1
572 фраза женский род
чемодан
updated gender id for word чемодан with gender id 2
573 чемодан мужской род
кафедра
updated gender id for word кафедра with gender id 1
574 кафедра женский род
компания
updated gender id for word компания with gender id 1
575 компания женский род
оборудование
updated gender id for word оборудование with gender id 3
576 оборудование средний род
покой
updated gender id for word покой with gender id 2
577 покой мужской род
спорт
updated gender id for word спорт with gender id 2
578 спорт мужской род
фильм
updated gender id for word фильм with gender id 2
579 фильм мужской род
безопасность
updated gender id for word безопасность with gender id 1
580 безопасность женский род
дисциплина
updated gender id for word дисциплина with gender id 1
581 дисциплина женский род
изображение
updated gender id for word изображение with gender id 3
582 изображение средний род
крепость
updated gender id for word крепость with gender id 1
583 крепость женский род
талант
updated gender id for word талант with gender id 2
584 талант мужской род
юность
updated gender id for word юность with gender id 1
585 юность женский род
величина
updated gender id for word величина with gender id 1
586 величина женский род
зеркало
updated gender id for word зеркало with gender id 3
587 зеркало средний род
крыло
updated gender id for word крыло with gender id 3
588 крыло средний род
лестница
updated gender id for word лестница with gender id 1
589 лестница женский род
пальто
updated gender id for word пальто with gender id 3
590 пальто средний род
платье
updated gender id for word платье with gender id 3
591 платье средний род
пушка
updated gender id for word пушка with gender id 1
592 пушка женский род
получение
updated gender id for word получение with gender id 3
593 получение средний род
посёлок
updated gender id for word посёлок with gender id 2
594 посёлок мужской род
потеря
updated gender id for word потеря with gender id 1
595 потеря женский род
пожар
updated gender id for word пожар with gender id 2
596 пожар мужской род
слух
updated gender id for word слух with gender id 2
597 слух мужской род
снаряд
updated gender id for word снаряд with gender id 2
598 снаряд мужской род
экзамен
updated gender id for word экзамен with gender id 2
599 экзамен мужской род
благо
updated gender id for word благо with gender id 3
600 благо средний род
болото
updated gender id for word болото with gender id 3
601 болото средний род
двигатель
updated gender id for word двигатель with gender id 2
602 двигатель мужской род
капиталист
updated gender id for word капиталист with gender id 2
603 капиталист мужской род
организм
updated gender id for word организм with gender id 2
604 организм мужской род
остаток
updated gender id for word остаток with gender id 2
605 остаток мужской род
поп
updated gender id for word поп with gender id 2
606 поп мужской род
привычка
updated gender id for word привычка with gender id 1
607 привычка женский род
соглашение
updated gender id for word соглашение with gender id 3
608 соглашение средний род
спор
updated gender id for word спор with gender id 2
609 спор мужской род
строка
updated gender id for word строка with gender id 1
610 строка женский род
увеличение
updated gender id for word увеличение with gender id 3
611 увеличение средний род
урожай
updated gender id for word урожай with gender id 2
612 урожай мужской род
борода
updated gender id for word борода with gender id 1
613 борода женский род
заявление
updated gender id for word заявление with gender id 3
614 заявление средний род
охота
updated gender id for word охота with gender id 1
615 охота женский род
пища
updated gender id for word пища with gender id 1
616 пища женский род
помещение
updated gender id for word помещение with gender id 3
617 помещение средний род
телеграмма
updated gender id for word телеграмма with gender id 1
618 телеграмма женский род
транспорт
updated gender id for word транспорт with gender id 2
619 транспорт мужской род
бык
updated gender id for word бык with gender id 2
620 бык мужской род
выполнение
updated gender id for word выполнение with gender id 3
621 выполнение средний род
кожа
updated gender id for word кожа with gender id 1
622 кожа женский род
пламя
updated gender id for word пламя with gender id 3
623 пламя средний род
понимание
updated gender id for word понимание with gender id 3
624 понимание средний род
профессия
updated gender id for word профессия with gender id 1
625 профессия женский род
сооружение
updated gender id for word сооружение with gender id 3
626 сооружение средний род
сторож
updated gender id for word сторож with gender id 2
627 сторож мужской род
тревога
updated gender id for word тревога with gender id 1
628 тревога женский род
бутылка
updated gender id for word бутылка with gender id 1
629 бутылка женский род
давление
updated gender id for word давление with gender id 3
630 давление средний род
запад
updated gender id for word запад with gender id 2
631 запад мужской род
колебание
updated gender id for word колебание with gender id 3
632 колебание средний род
кровать
updated gender id for word кровать with gender id 1
633 кровать женский род
мощность
updated gender id for word мощность with gender id 1
634 мощность женский род
подарок
updated gender id for word подарок with gender id 2
635 подарок мужской род
превращение
updated gender id for word превращение with gender id 3
636 превращение средний род
ствол
updated gender id for word ствол with gender id 2
637 ствол мужской род
уверенность
updated gender id for word уверенность with gender id 1
638 уверенность женский род
фонарь
updated gender id for word фонарь with gender id 2
639 фонарь мужской род
градус
updated gender id for word градус with gender id 2
640 градус мужской род
заказ
updated gender id for word заказ with gender id 2
641 заказ мужской род
инициатива
updated gender id for word инициатива with gender id 1
642 инициатива женский род
лекция
updated gender id for word лекция with gender id 1
643 лекция женский род
отдел
updated gender id for word отдел with gender id 2
644 отдел мужской род
отдых
updated gender id for word отдых with gender id 2
645 отдых мужской род
отсутствие
updated gender id for word отсутствие with gender id 3
646 отсутствие средний род
призыв
updated gender id for word призыв with gender id 2
647 призыв мужской род
производительность
updated gender id for word производительность with gender id 1
648 производительность женский род
реакция
updated gender id for word реакция with gender id 1
649 реакция женский род
сказка
updated gender id for word сказка with gender id 1
650 сказка женский род
старушка
updated gender id for word старушка with gender id 1
651 старушка женский род
батарея
updated gender id for word батарея with gender id 1
652 батарея женский род
главное
updated gender id for word главное with gender id 3
653 главное средний род
инструмент
updated gender id for word инструмент with gender id 1
654 инструмент женский род
лёд
updated gender id for word лёд with gender id 2
655 лёд мужской род
мороз
updated gender id for word мороз with gender id 2
656 мороз мужской род
новость
updated gender id for word новость with gender id 1
657 новость женский род
оборона
updated gender id for word оборона with gender id 1
658 оборона женский род
освобождение
updated gender id for word освобождение with gender id 3
659 освобождение средний род
повесть
updated gender id for word повесть with gender id 1
660 повесть женский род
подвиг
updated gender id for word подвиг with gender id 2
661 подвиг мужской род
знак
updated gender id for word знак with gender id 2
662 знак мужской род
кран
updated gender id for word кран with gender id 2
663 кран мужской род
личность
updated gender id for word личность with gender id 1
664 личность женский род
масштаб
updated gender id for word масштаб with gender id 2
665 масштаб мужской род
мероприятие
updated gender id for word мероприятие with gender id 3
666 мероприятие средний род
охрана
updated gender id for word охрана with gender id 1
667 охрана женский род
присутствие
updated gender id for word присутствие with gender id 3
668 присутствие средний род
пустяк
updated gender id for word пустяк with gender id 2
669 пустяк мужской род
пятно
updated gender id for word пятно with gender id 3
670 пятно средний род
рождение
updated gender id for word рождение with gender id 3
671 рождение средний род
сопротивление
updated gender id for word сопротивление with gender id 3
672 сопротивление средний род
флаг
updated gender id for word флаг with gender id 1
673 флаг женский род
частность
updated gender id for word частность with gender id 1
674 частность женский род
апрель
updated gender id for word апрель with gender id 2
675 апрель мужской род
атака
updated gender id for word атака with gender id 1
676 атака женский род
достоинство
updated gender id for word достоинство with gender id 3
677 достоинство средний род
медаль
updated gender id for word медаль with gender id 1
678 медаль женский род
норма
updated gender id for word норма with gender id 1
679 норма женский род
нужда
updated gender id for word нужда with gender id 1
680 нужда женский род
отделение
updated gender id for word отделение with gender id 3
681 отделение средний род
посуда
updated gender id for word посуда with gender id 1
682 посуда женский род
пропаганда
updated gender id for word пропаганда with gender id 1
683 пропаганда женский род
пулемёт
updated gender id for word пулемёт with gender id 2
684 пулемёт мужской род
соревнование
updated gender id for word соревнование with gender id 3
685 соревнование средний род
участок
updated gender id for word участок with gender id 2
686 участок мужской род
бригада
updated gender id for word бригада with gender id 1
687 бригада женский род
коллектив
updated gender id for word коллектив with gender id 2
688 коллектив мужской род
командир
updated gender id for word командир with gender id 2
689 командир мужской род
гибель
updated gender id for word гибель with gender id 1
690 гибель женский род
единство
updated gender id for word единство with gender id 3
691 единство средний род
молодость
updated gender id for word молодость with gender id 1
692 молодость женский род
признак
updated gender id for word признак with gender id 2
693 признак мужской род
распоряжение
updated gender id for word распоряжение with gender id 3
694 распоряжение средний род
сеть
updated gender id for word сеть with gender id 1
695 сеть женский род
сумма
updated gender id for word сумма with gender id 1
696 сумма женский род
социализм
updated gender id for word социализм with gender id 2
697 социализм мужской род
конференция
updated gender id for word конференция with gender id 1
698 конференция женский род
куст
updated gender id for word куст with gender id 2
699 куст мужской род
мозг
updated gender id for word мозг with gender id 2
700 мозг мужской род
нация
updated gender id for word нация with gender id 1
701 нация женский род
самовар
updated gender id for word самовар with gender id 2
702 самовар мужской род
шёпот
updated gender id for word шёпот with gender id 2
703 шёпот мужской род
борец
updated gender id for word борец with gender id 2
704 борец мужской род
выигрыш
updated gender id for word выигрыш with gender id 2
705 выигрыш мужской род
заместитель
updated gender id for word заместитель with gender id 2
706 заместитель мужской род
клетка
updated gender id for word клетка with gender id 1
707 клетка женский род
обязанность
updated gender id for word обязанность with gender id 1
708 обязанность женский род
пустыня
updated gender id for word пустыня with gender id 1
709 пустыня женский род
путешествие
updated gender id for word путешествие with gender id 3
710 путешествие средний род
ремонт
updated gender id for word ремонт with gender id 2
711 ремонт мужской род
билет
updated gender id for word билет with gender id 2
712 билет мужской род
возбуждение
updated gender id for word возбуждение with gender id 3
713 возбуждение средний род
выпуск
updated gender id for word выпуск with gender id 2
714 выпуск мужской род
грех
updated gender id for word грех with gender id 2
715 грех мужской род
изготовление
updated gender id for word изготовление with gender id 3
716 изготовление средний род
критика
updated gender id for word критика with gender id 1
717 критика женский род
надпись
updated gender id for word надпись with gender id 1
718 надпись женский род
обращение
updated gender id for word обращение with gender id 3
719 обращение средний род
поездка
updated gender id for word поездка with gender id 1
720 поездка женский род
полиция
updated gender id for word полиция with gender id 1
721 полиция женский род
ружьё
updated gender id for word ружьё with gender id 3
722 ружьё средний род
сахар
updated gender id for word сахар with gender id 2
723 сахар мужской род
туча
updated gender id for word туча with gender id 1
724 туча женский род
устройство
updated gender id for word устройство with gender id 3
725 устройство средний род
буря
updated gender id for word буря with gender id 1
726 буря женский род
вино
updated gender id for word вино with gender id 3
727 вино средний род
экспедиция
updated gender id for word экспедиция with gender id 1
728 экспедиция женский род
выстрел
updated gender id for word выстрел with gender id 2
729 выстрел мужской род
жертва
updated gender id for word жертва with gender id 1
730 жертва женский род
животное
updated gender id for word животное with gender id 3
731 животное средний род
знамя
updated gender id for word знамя with gender id 3
732 знамя средний род
информация
updated gender id for word информация with gender id 1
733 информация женский род
концерт
updated gender id for word концерт with gender id 2
734 концерт мужской род
костёр
updated gender id for word костёр with gender id 2
735 костёр мужской род
механизм
updated gender id for word механизм with gender id 2
736 механизм мужской род
объяснение
updated gender id for word объяснение with gender id 3
737 объяснение средний род
переворот
updated gender id for word переворот with gender id 2
738 переворот мужской род
перо
updated gender id for word перо with gender id 2
739 перо мужской род
поворот
updated gender id for word поворот with gender id 2
740 поворот мужской род
распределение
updated gender id for word распределение with gender id 3
741 распределение средний род
свеча
updated gender id for word свеча with gender id 1
742 свеча женский род
секрет
updated gender id for word секрет with gender id 2
743 секрет мужской род
склад
updated gender id for word склад with gender id 2
744 склад мужской род
сочинение
updated gender id for word сочинение with gender id 3
745 сочинение средний род
список
updated gender id for word список with gender id 2
746 список мужской род
сфера
updated gender id for word сфера with gender id 1
747 сфера женский род
этап
updated gender id for word этап with gender id 2
748 этап мужской род
актёр
updated gender id for word актёр with gender id 1
749 актёр женский род
арест
updated gender id for word арест with gender id 2
750 арест мужской род
вкус
updated gender id for word вкус with gender id 2
751 вкус мужской род
воспоминание
updated gender id for word воспоминание with gender id 3
752 воспоминание средний род
добыча
updated gender id for word добыча with gender id 1
753 добыча женский род
крест
updated gender id for word крест with gender id 2
754 крест мужской род
механик
updated gender id for word механик with gender id 2
755 механик мужской род
напряжение
updated gender id for word напряжение with gender id 3
756 напряжение средний род
ноябрь
updated gender id for word ноябрь with gender id 2
757 ноябрь мужской род
признание
updated gender id for word признание with gender id 3
758 признание средний род
рассвет
updated gender id for word рассвет with gender id 2
759 рассвет мужской род
фирма
updated gender id for word фирма with gender id 1
760 фирма женский род
автомат
updated gender id for word автомат with gender id 2
761 автомат мужской род
буква
updated gender id for word буква with gender id 1
762 буква женский род
глупость
updated gender id for word глупость with gender id 1
763 глупость женский род
голод
updated gender id for word голод with gender id 2
764 голод мужской род
доверие
updated gender id for word доверие with gender id 3
765 доверие средний род
матч
updated gender id for word матч with gender id 2
766 матч мужской род
наблюдение
updated gender id for word наблюдение with gender id 3
767 наблюдение средний род
отличие
updated gender id for word отличие with gender id 3
768 отличие средний род
перестройка
updated gender id for word перестройка with gender id 1
769 перестройка женский род
преимущество
updated gender id for word преимущество with gender id 3
770 преимущество средний род
сталь
updated gender id for word сталь with gender id 1
771 сталь женский род
хвост
updated gender id for word хвост with gender id 2
772 хвост мужской род
вокзал
updated gender id for word вокзал with gender id 2
773 вокзал мужской род
любопытство
updated gender id for word любопытство with gender id 3
774 любопытство средний род
парк
updated gender id for word парк with gender id 2
775 парк мужской род
простор
updated gender id for word простор with gender id 2
776 простор мужской род
рынок
updated gender id for word рынок with gender id 2
777 рынок мужской род
столб
updated gender id for word столб with gender id 2
778 столб мужской род
точность
updated gender id for word точность with gender id 1
779 точность женский род
арена
updated gender id for word арена with gender id 1
780 арена женский род
взор
updated gender id for word взор with gender id 2
781 взор мужской род
зависимость
updated gender id for word зависимость with gender id 1
782 зависимость женский род
подруга
updated gender id for word подруга with gender id 1
783 подруга женский род
подушка
updated gender id for word подушка with gender id 1
784 подушка женский род
правление
updated gender id for word правление with gender id 3
785 правление средний род
рубашка
updated gender id for word рубашка with gender id 1
786 рубашка женский род
скала
updated gender id for word скала with gender id 1
787 скала женский род
справедливость
updated gender id for word справедливость with gender id 1
788 справедливость женский род
тьма
updated gender id for word тьма with gender id 1
789 тьма женский род
февраль
updated gender id for word февраль with gender id 2
790 февраль мужской род
декабрь
updated gender id for word декабрь with gender id 2
791 декабрь мужской род
дивизия
updated gender id for word дивизия with gender id 1
792 дивизия женский род
дыхание
updated gender id for word дыхание with gender id 3
793 дыхание средний род
заря
updated gender id for word заря with gender id 1
794 заря женский род
колокол
updated gender id for word колокол with gender id 2
795 колокол мужской род
обязательство
updated gender id for word обязательство with gender id 3
796 обязательство средний род
орден
updated gender id for word орден with gender id 2
797 орден мужской род
очки
798 очки множественное число
перспектива
updated gender id for word перспектива with gender id 1
799 перспектива женский род
сборник
updated gender id for word сборник with gender id 2
800 сборник мужской род
спектакль
updated gender id for word спектакль with gender id 2
801 спектакль мужской род
ценность
updated gender id for word ценность with gender id 1
802 ценность женский род
агроном
updated gender id for word агроном with gender id 2
803 агроном мужской род
внедрение
updated gender id for word внедрение with gender id 3
804 внедрение средний род
гордость
updated gender id for word гордость with gender id 1
805 гордость женский род
кино
updated gender id for word кино with gender id 3
806 кино средний род
806 кино пренебрежительно
масло
updated gender id for word масло with gender id 3
807 масло средний род
мастерская
updated gender id for word мастерская with gender id 1
808 мастерская женский род
мясо
updated gender id for word мясо with gender id 3
809 мясо средний род
наступление
updated gender id for word наступление with gender id 3
810 наступление средний род
невеста
updated gender id for word невеста with gender id 1
811 невеста женский род
памятник
updated gender id for word памятник with gender id 2
812 памятник мужской род
подход
updated gender id for word подход with gender id 2
813 подход мужской род
появление
updated gender id for word появление with gender id 3
814 появление средний род
прибыль
updated gender id for word прибыль with gender id 1
815 прибыль женский род
технология
updated gender id for word технология with gender id 1
816 технология женский род
ткань
updated gender id for word ткань with gender id 1
817 ткань женский род
толк
updated gender id for word толк with gender id 2
818 толк мужской род
тоска
updated gender id for word тоска with gender id 1
819 тоска женский род
фактор
updated gender id for word фактор with gender id 2
820 фактор мужской род
агент
updated gender id for word агент with gender id 2
821 агент мужской род
бассейн
updated gender id for word бассейн with gender id 2
822 бассейн мужской род
вариант
updated gender id for word вариант with gender id 2
823 вариант мужской род
выбор
updated gender id for word выбор with gender id 2
824 выбор мужской род
гул
updated gender id for word гул with gender id 2
825 гул мужской род
забор
updated gender id for word забор with gender id 2
826 забор мужской род
континент
updated gender id for word континент with gender id 2
827 континент мужской род
лозунг
updated gender id for word лозунг with gender id 2
828 лозунг мужской род
нефть
updated gender id for word нефть with gender id 1
829 нефть женский род
прекращение
updated gender id for word прекращение with gender id 3
830 прекращение средний род
заяц
updated gender id for word заяц with gender id 2
831 заяц мужской род
кора
updated gender id for word кора with gender id 1
832 кора женский род
луг
updated gender id for word луг with gender id 2
833 луг мужской род
мгновение
updated gender id for word мгновение with gender id 3
834 мгновение средний род
нерв
updated gender id for word нерв with gender id 2
835 нерв мужской род
оценка
updated gender id for word оценка with gender id 1
836 оценка женский род
поэзия
updated gender id for word поэзия with gender id 1
837 поэзия женский род
разрушение
updated gender id for word разрушение with gender id 3
838 разрушение средний род
ресурс
updated gender id for word ресурс with gender id 2
839 ресурс мужской род
удовлетворение
updated gender id for word удовлетворение with gender id 3
840 удовлетворение средний род
уничтожение
updated gender id for word уничтожение with gender id 3
841 уничтожение средний род
агрессор
updated gender id for word агрессор with gender id 2
842 агрессор мужской род
ведро
updated gender id for word ведро with gender id 3
843 ведро средний род
выставка
updated gender id for word выставка with gender id 1
844 выставка женский род
довод
updated gender id for word довод with gender id 2
845 довод мужской род
доказательство
updated gender id for word доказательство with gender id 3
846 доказательство средний род
замысел
updated gender id for word замысел with gender id 2
847 замысел мужской род
зона
updated gender id for word зона with gender id 1
848 зона женский род
игрок
updated gender id for word игрок with gender id 2
849 игрок мужской род
июнь
updated gender id for word июнь with gender id 2
850 июнь мужской род
король
updated gender id for word король with gender id 2
851 король мужской род
лавка
updated gender id for word лавка with gender id 1
852 лавка женский род
обеспечение
updated gender id for word обеспечение with gender id 3
853 обеспечение средний род
обмен
updated gender id for word обмен with gender id 2
854 обмен мужской род
отказ
updated gender id for word отказ with gender id 2
855 отказ мужской род
подробность
updated gender id for word подробность with gender id 1
856 подробность женский род
постель
updated gender id for word постель with gender id 1
857 постель женский род
провинция
updated gender id for word провинция with gender id 1
858 провинция женский род
различие
updated gender id for word различие with gender id 3
859 различие средний род
склон
updated gender id for word склон with gender id 2
860 склон мужской род
сохранение
updated gender id for word сохранение with gender id 3
861 сохранение средний род
тетрадь
updated gender id for word тетрадь with gender id 1
862 тетрадь женский род
топор
updated gender id for word топор with gender id 2
863 топор мужской род
шкаф
updated gender id for word шкаф with gender id 2
864 шкаф мужской род
щель
updated gender id for word щель with gender id 1
865 щель женский род
юг
updated gender id for word юг with gender id 2
866 юг мужской род
балкон
updated gender id for word балкон with gender id 2
867 балкон мужской род
бокал
updated gender id for word бокал with gender id 2
868 бокал мужской род
вход
updated gender id for word вход with gender id 2
869 вход мужской род
гроб
updated gender id for word гроб with gender id 2
870 гроб мужской род
делегация
updated gender id for word делегация with gender id 1
871 делегация женский род
звон
updated gender id for word звон with gender id 2
872 звон мужской род
кандидат
updated gender id for word кандидат with gender id 2
873 кандидат мужской род
кирпич
updated gender id for word кирпич with gender id 2
874 кирпич мужской род
куча
updated gender id for word куча with gender id 1
875 куча женский род
ложка
updated gender id for word ложка with gender id 1
876 ложка женский род
ненависть
updated gender id for word ненависть with gender id 1
877 ненависть женский род
нитка
updated gender id for word нитка with gender id 1
878 нитка женский род
общественность
updated gender id for word общественность with gender id 1
879 общественность женский род
отчаяние
updated gender id for word отчаяние with gender id 3
880 отчаяние средний род
почта
updated gender id for word почта with gender id 1
881 почта женский род
премия
updated gender id for word премия with gender id 1
882 премия женский род
препятствие
updated gender id for word препятствие with gender id 3
883 препятствие средний род
происхождение
updated gender id for word происхождение with gender id 3
884 происхождение средний род
самолюбие
updated gender id for word самолюбие with gender id 3
885 самолюбие средний род
свидетельство
updated gender id for word свидетельство with gender id 3
886 свидетельство средний род
суть
updated gender id for word суть with gender id 1
887 суть женский род
убеждение
updated gender id for word убеждение with gender id 3
888 убеждение средний род
гений
updated gender id for word гений with gender id 2
889 гений мужской род
климат
updated gender id for word климат with gender id 2
890 климат мужской род
марш
updated gender id for word марш with gender id 2
891 марш мужской род
медведь
updated gender id for word медведь with gender id 2
892 медведь мужской род
освещение
updated gender id for word освещение with gender id 3
893 освещение средний род
оттенок
updated gender id for word оттенок with gender id 2
894 оттенок мужской род
папка
updated gender id for word папка with gender id 1
895 папка женский род
продолжение
updated gender id for word продолжение with gender id 3
896 продолжение средний род
проявление
updated gender id for word проявление with gender id 3
897 проявление средний род
публика
updated gender id for word публика with gender id 1
898 публика женский род
разница
updated gender id for word разница with gender id 1
899 разница женский род
решётка
updated gender id for word решётка with gender id 1
900 решётка женский род
свинья
updated gender id for word свинья with gender id 1
901 свинья женский род
снижение
updated gender id for word снижение with gender id 3
902 снижение средний род
сочетание
updated gender id for word сочетание with gender id 3
903 сочетание средний род
тряпка
updated gender id for word тряпка with gender id 1
904 тряпка женский род
царство
updated gender id for word царство with gender id 3
905 царство средний род
этаж
updated gender id for word этаж with gender id 2
906 этаж мужской род
банк
updated gender id for word банк with gender id 2
907 банк мужской род
величие
updated gender id for word величие with gender id 3
908 величие средний род
запись
updated gender id for word запись with gender id 1
909 запись женский род
знакомство
updated gender id for word знакомство with gender id 3
910 знакомство средний род
имущество
updated gender id for word имущество with gender id 3
911 имущество средний род
кость
updated gender id for word кость with gender id 1
912 кость женский род
манера
updated gender id for word манера with gender id 1
913 манера женский род
несчастье
updated gender id for word несчастье with gender id 3
914 несчастье средний род
оркестр
updated gender id for word оркестр with gender id 2
915 оркестр мужской род
предположение
updated gender id for word предположение with gender id 3
916 предположение средний род
равенство
updated gender id for word равенство with gender id 3
917 равенство средний род
скатерть
updated gender id for word скатерть with gender id 1
918 скатерть женский род
соображение
updated gender id for word соображение with gender id 3
919 соображение средний род
стрела
updated gender id for word стрела with gender id 1
920 стрела женский род
струя
updated gender id for word струя with gender id 1
921 струя женский род
узел
updated gender id for word узел with gender id 2
922 узел мужской род
яблоко
updated gender id for word яблоко with gender id 3
923 яблоко средний род
бедствие
updated gender id for word бедствие with gender id 3
924 бедствие средний род
ближний
updated gender id for word ближний with gender id 2
925 ближний мужской род
введение
updated gender id for word введение with gender id 3
926 введение средний род
данные
927 данные множественное число
девица
updated gender id for word девица with gender id 1
928 девица женский род
дневник
updated gender id for word дневник with gender id 2
929 дневник мужской род
заведующий
updated gender id for word заведующий with gender id 2
930 заведующий мужской род
картинка
updated gender id for word картинка with gender id 1
931 картинка женский род
коса
updated gender id for word коса with gender id 1
932 коса женский род
кошка
updated gender id for word кошка with gender id 1
933 кошка женский род
кризис
updated gender id for word кризис with gender id 2
934 кризис мужской род
милиция
updated gender id for word милиция with gender id 2
935 милиция мужской род
молния
updated gender id for word молния with gender id 1
936 молния женский род
мышь
updated gender id for word мышь with gender id 1
937 мышь женский род
намерение
updated gender id for word намерение with gender id 3
938 намерение средний род
натура
updated gender id for word натура with gender id 1
939 натура женский род
отчёт
updated gender id for word отчёт with gender id 2
940 отчёт мужской род
политик
updated gender id for word политик with gender id 2
941 политик мужской род
свадьба
updated gender id for word свадьба with gender id 1
942 свадьба женский род
станок
updated gender id for word станок with gender id 2
943 станок мужской род
скука
updated gender id for word скука with gender id 1
944 скука женский род
сокращение
updated gender id for word сокращение with gender id 3
945 сокращение средний род
суббота
updated gender id for word суббота with gender id 1
946 суббота женский род
ущерб
updated gender id for word ущерб with gender id 2
947 ущерб мужской род
чиновник
updated gender id for word чиновник with gender id 2
948 чиновник мужской род
буфет
updated gender id for word буфет with gender id 2
949 буфет мужской род
быстрота
updated gender id for word быстрота with gender id 1
950 быстрота женский род
империя
updated gender id for word империя with gender id 2
951 империя мужской род
камера
updated gender id for word камера with gender id 1
952 камера женский род
категория
updated gender id for word категория with gender id 1
953 категория женский род
ложь
updated gender id for word ложь with gender id 1
954 ложь женский род
милость
updated gender id for word милость with gender id 1
955 милость женский род
монета
updated gender id for word монета with gender id 1
956 монета женский род
мышление
updated gender id for word мышление with gender id 3
957 мышление средний род
рабство
updated gender id for word рабство with gender id 3
958 рабство средний род
сантиметр
updated gender id for word сантиметр with gender id 2
959 сантиметр мужской род
скот
updated gender id for word скот with gender id 2
960 скот мужской род
тактика
updated gender id for word тактика with gender id 1
961 тактика женский род
течь
updated gender id for word течь with gender id 1
962 течь женский род
тупик
updated gender id for word тупик with gender id 2
963 тупик мужской род
утверждение
updated gender id for word утверждение with gender id 3
964 утверждение средний род
холод
updated gender id for word холод with gender id 2
965 холод мужской род
эффект
updated gender id for word эффект with gender id 2
966 эффект мужской род
бельё
updated gender id for word бельё with gender id 3
967 бельё средний род
берёза
updated gender id for word берёза with gender id 1
968 берёза женский род
визит
updated gender id for word визит with gender id 2
969 визит мужской род
возмущение
updated gender id for word возмущение with gender id 3
970 возмущение средний род
горшок
updated gender id for word горшок with gender id 2
971 горшок мужской род
гроза
updated gender id for word гроза with gender id 1
972 гроза женский род
единица
updated gender id for word единица with gender id 1
973 единица женский род
мебель
updated gender id for word мебель with gender id 1
974 мебель женский род
перевод
updated gender id for word перевод with gender id 2
975 перевод мужской род
плата
updated gender id for word плата with gender id 1
976 плата женский род
пресса
updated gender id for word пресса with gender id 1
977 пресса женский род
прокурор
updated gender id for word прокурор with gender id 2
978 прокурор мужской род
разработка
updated gender id for word разработка with gender id 1
979 разработка женский род
рамка
updated gender id for word рамка with gender id 1
980 рамка женский род
расширение
updated gender id for word расширение with gender id 3
981 расширение средний род
табак
updated gender id for word табак with gender id 2
982 табак мужской род
учёт
updated gender id for word учёт with gender id 2
983 учёт мужской род
фон
updated gender id for word фон with gender id 2
984 фон мужской род
фонд
updated gender id for word фонд with gender id 2
985 фонд мужской род
фунт
updated gender id for word фунт with gender id 2
986 фунт мужской род
халат
updated gender id for word халат with gender id 2
987 халат мужской род
электростанция
updated gender id for word электростанция with gender id 1
988 электростанция женский род
барышня
updated gender id for word барышня with gender id 1
989 барышня женский род
гнев
updated gender id for word гнев with gender id 2
990 гнев мужской род
драка
updated gender id for word драка with gender id 1
991 драка женский род
живот
updated gender id for word живот with gender id 2
992 живот мужской род
закономерность
updated gender id for word закономерность with gender id 1
993 закономерность женский род
заслуга
updated gender id for word заслуга with gender id 1
994 заслуга женский род
красавица
updated gender id for word красавица with gender id 1
995 красавица женский род
облик
updated gender id for word облик with gender id 2
996 облик мужской род
обломок
updated gender id for word обломок with gender id 2
997 обломок мужской род
одеяло
updated gender id for word одеяло with gender id 3
998 одеяло средний род
осколок
updated gender id for word осколок with gender id 2
999 осколок мужской род
поражение
updated gender id for word поражение with gender id 3
1000 поражение средний род
разведка
updated gender id for word разведка with gender id 1
1001 разведка женский род
рубеж
updated gender id for word рубеж with gender id 2
1002 рубеж мужской род
сарай
updated gender id for word сарай with gender id 2
1003 сарай мужской род
сок
updated gender id for word сок with gender id 2
1004 сок мужской род
структура
updated gender id for word структура with gender id 1
1005 структура женский род
ступень
updated gender id for word ступень with gender id 1
1006 ступень женский род
стыд
updated gender id for word стыд with gender id 2
1007 стыд мужской род
философ
updated gender id for word философ with gender id 2
1008 философ мужской род
аудитория
updated gender id for word аудитория with gender id 1
1009 аудитория женский род
базар
updated gender id for word базар with gender id 2
1010 базар мужской род
верёвка
updated gender id for word верёвка with gender id 1
1011 верёвка женский род
долина
updated gender id for word долина with gender id 1
1012 долина женский род
известие
updated gender id for word известие with gender id 3
1013 известие средний род
килограмм
updated gender id for word килограмм with gender id 2
1014 килограмм мужской род
крыса
updated gender id for word крыса with gender id 1
1015 крыса женский род
мелочь
updated gender id for word мелочь with gender id 1
1016 мелочь женский род
немногие
1017 немногие множественное число
огород
updated gender id for word огород with gender id 2
1018 огород мужской род
плёнка
updated gender id for word плёнка with gender id 1
1019 плёнка женский род
