дыра
updated gender id for word дыра with gender id 1
001 дыра женский род
жильё
updated gender id for word жильё with gender id 3
002 жильё средний род
зарево
updated gender id for word зарево with gender id 3
003 зарево средний род
изумление
updated gender id for word изумление with gender id 3
004 изумление средний род
клочок
updated gender id for word клочок with gender id 2
005 клочок мужской род
кнут
updated gender id for word кнут with gender id 2
006 кнут мужской род
кузнец
updated gender id for word кузнец with gender id 2
007 кузнец мужской род
кукушка
updated gender id for word кукушка with gender id 1
008 кукушка женский род
лёгкость
updated gender id for word лёгкость with gender id 1
009 лёгкость женский род
манифест
updated gender id for word манифест with gender id 2
010 манифест мужской род
напиток
updated gender id for word напиток with gender id 2
011 напиток мужской род
насос
updated gender id for word насос with gender id 2
012 насос мужской род
нашествие
updated gender id for word нашествие with gender id 3
013 нашествие средний род
обряд
updated gender id for word обряд with gender id 2
014 обряд мужской род
объявление
updated gender id for word объявление with gender id 3
015 объявление средний род
объятие
updated gender id for word объятие with gender id 3
016 объятие средний род
особняк
updated gender id for word особняк with gender id 2
017 особняк мужской род
осуждение
updated gender id for word осуждение with gender id 3
018 осуждение средний род
отвращение
updated gender id for word отвращение with gender id 3
019 отвращение средний род
отдача
updated gender id for word отдача with gender id 1
020 отдача женский род
отдельность
updated gender id for word отдельность with gender id 1
021 отдельность женский род
парад
updated gender id for word парад with gender id 2
022 парад мужской род
парикмахерская
updated gender id for word парикмахерская with gender id 1
023 парикмахерская женский род
плащ
updated gender id for word плащ with gender id 2
024 плащ мужской род
повреждение
updated gender id for word повреждение with gender id 3
025 повреждение средний род
понижение
updated gender id for word понижение with gender id 3
026 понижение средний род
потомок
updated gender id for word потомок with gender id 2
027 потомок мужской род
походка
updated gender id for word походка with gender id 1
028 походка женский род
правитель
updated gender id for word правитель with gender id 2
029 правитель мужской род
предчувствие
updated gender id for word предчувствие with gender id 3
030 предчувствие средний род
престиж
updated gender id for word престиж with gender id 2
031 престиж мужской род
провал
updated gender id for word провал with gender id 2
032 провал мужской род
продовольствие
updated gender id for word продовольствие with gender id 3
033 продовольствие средний род
прядь
updated gender id for word прядь with gender id 1
034 прядь женский род
путаница
updated gender id for word путаница with gender id 1
035 путаница женский род
развалина
updated gender id for word развалина with gender id 1
036 развалина женский род
раздражение
updated gender id for word раздражение with gender id 3
037 раздражение средний род
расцвет
updated gender id for word расцвет with gender id 2
038 расцвет мужской род
реализация
updated gender id for word реализация with gender id 1
039 реализация женский род
ремесло
updated gender id for word ремесло with gender id 3
040 ремесло средний род
реплика
updated gender id for word реплика with gender id 1
041 реплика женский род
родство
updated gender id for word родство with gender id 3
042 родство средний род
роскошь
updated gender id for word роскошь with gender id 1
043 роскошь женский род
рывок
updated gender id for word рывок with gender id 2
044 рывок мужской род
слон
updated gender id for word слон with gender id 2
045 слон мужской род
смущение
updated gender id for word смущение with gender id 3
046 смущение средний род
снежинка
updated gender id for word снежинка with gender id 1
047 снежинка женский род
соотношение
updated gender id for word соотношение with gender id 3
048 соотношение средний род
сопровождение
updated gender id for word сопровождение with gender id 3
049 сопровождение средний род
спуск
updated gender id for word спуск with gender id 2
050 спуск мужской род
стоянка
updated gender id for word стоянка with gender id 1
051 стоянка женский род
таблетка
updated gender id for word таблетка with gender id 1
052 таблетка женский род
указ
updated gender id for word указ with gender id 2
053 указ мужской род
унижение
updated gender id for word унижение with gender id 3
054 унижение средний род
ураган
updated gender id for word ураган with gender id 2
055 ураган мужской род
чаша
updated gender id for word чаша with gender id 1
056 чаша женский род
честность
updated gender id for word честность with gender id 1
057 честность женский род
четвёрка
updated gender id for word четвёрка with gender id 1
058 четвёрка женский род
шанс
updated gender id for word шанс with gender id 2
059 шанс мужской род
шёлк
updated gender id for word шёлк with gender id 2
060 шёлк мужской род
шут
updated gender id for word шут with gender id 2
061 шут мужской род
юмор
updated gender id for word юмор with gender id 2
062 юмор мужской род
амнистия
updated gender id for word амнистия with gender id 1
063 амнистия женский род
асфальт
updated gender id for word асфальт with gender id 2
064 асфальт мужской род
аэропорт
updated gender id for word аэропорт with gender id 2
065 аэропорт мужской род
благородство
updated gender id for word благородство with gender id 3
066 благородство средний род
болтовня
updated gender id for word болтовня with gender id 1
067 болтовня женский род
бомбёжка
updated gender id for word бомбёжка with gender id 1
068 бомбёжка женский род
бронза
updated gender id for word бронза with gender id 1
069 бронза женский род
варежка
updated gender id for word варежка with gender id 1
070 варежка женский род
внешность
updated gender id for word внешность with gender id 1
071 внешность женский род
возражение
updated gender id for word возражение with gender id 3
072 возражение средний род
вступление
updated gender id for word вступление with gender id 3
073 вступление средний род
добавка
updated gender id for word добавка with gender id 1
074 добавка женский род
доставка
updated gender id for word доставка with gender id 1
075 доставка женский род
забава
updated gender id for word забава with gender id 1
076 забава женский род
заход
updated gender id for word заход with gender id 2
077 заход мужской род
змея
updated gender id for word змея with gender id 1
078 змея женский род
истребитель
updated gender id for word истребитель with gender id 2
079 истребитель мужской род
каблук
updated gender id for word каблук with gender id 2
080 каблук мужской род
канава
updated gender id for word канава with gender id 1
081 канава женский род
кандидатура
updated gender id for word кандидатура with gender id 1
082 кандидатура женский род
кара
updated gender id for word кара with gender id 1
083 кара женский род
клок
updated gender id for word клок with gender id 2
084 клок мужской род
косынка
updated gender id for word косынка with gender id 1
085 косынка женский род
кофта
updated gender id for word кофта with gender id 1
086 кофта женский род
крайность
updated gender id for word крайность with gender id 1
087 крайность женский род
красавец
updated gender id for word красавец with gender id 2
088 красавец мужской род
кувшин
updated gender id for word кувшин with gender id 2
089 кувшин мужской род
математик
updated gender id for word математик with gender id 2
090 математик мужской род
меньшинство
updated gender id for word меньшинство with gender id 3
091 меньшинство средний род
метла
updated gender id for word метла with gender id 1
092 метла женский род
милостыня
updated gender id for word милостыня with gender id 1
093 милостыня женский род
монастырь
updated gender id for word монастырь with gender id 2
094 монастырь мужской род
мускул
updated gender id for word мускул with gender id 2
095 мускул мужской род
неохота
updated gender id for word неохота with gender id 1
096 неохота женский род
нехватка
updated gender id for word нехватка with gender id 1
097 нехватка женский род
носилки
098 носилки множественное число
обилие
updated gender id for word обилие with gender id 3
099 обилие средний род
обрез
updated gender id for word обрез with gender id 2
100 обрез мужской род
ограничение
updated gender id for word ограничение with gender id 3
101 ограничение средний род
оккупация
updated gender id for word оккупация with gender id 1
102 оккупация женский род
округ
updated gender id for word округ with gender id 2
103 округ мужской род
окурок
updated gender id for word окурок with gender id 2
104 окурок мужской род
орёл
updated gender id for word орёл with gender id 2
105 орёл мужской род
отмена
updated gender id for word отмена with gender id 1
106 отмена женский род
отметка
updated gender id for word отметка with gender id 1
107 отметка женский род
отставка
updated gender id for word отставка with gender id 1
108 отставка женский род
отход
updated gender id for word отход with gender id 2
109 отход мужской род
парашют
updated gender id for word парашют with gender id 2
110 парашют мужской род
педагог
updated gender id for word педагог with gender id 2
111 педагог мужской род
передвижение
updated gender id for word передвижение with gender id 3
112 передвижение средний род
перемещение
updated gender id for word перемещение with gender id 3
113 перемещение средний род
персонаж
updated gender id for word персонаж with gender id 2
114 персонаж мужской род
повестка
updated gender id for word повестка with gender id 1
115 повестка женский род
повязка
updated gender id for word повязка with gender id 1
116 повязка женский род
погоня
updated gender id for word погоня with gender id 1
117 погоня женский род
подол
updated gender id for word подол with gender id 2
118 подол мужской род
подтверждение
updated gender id for word подтверждение with gender id 3
119 подтверждение средний род
полено
updated gender id for word полено with gender id 3
120 полено средний род
полотно
updated gender id for word полотно with gender id 3
121 полотно средний род
полуостров
updated gender id for word полуостров with gender id 2
122 полуостров мужской род
пособие
updated gender id for word пособие with gender id 3
123 пособие средний род
похвала
updated gender id for word похвала with gender id 1
124 похвала женский род
приближение
updated gender id for word приближение with gender id 3
125 приближение средний род
проход
updated gender id for word проход with gender id 2
126 проход мужской род
развлечение
updated gender id for word развлечение with gender id 3
127 развлечение средний род
расписка
updated gender id for word расписка with gender id 1
128 расписка женский род
распорядок
updated gender id for word распорядок with gender id 2
129 распорядок мужской род
репортаж
updated gender id for word репортаж with gender id 2
130 репортаж мужской род
румянец
updated gender id for word румянец with gender id 2
131 румянец мужской род
свежесть
updated gender id for word свежесть with gender id 1
132 свежесть женский род
сигарета
updated gender id for word сигарета with gender id 1
133 сигарета женский род
скачок
updated gender id for word скачок with gender id 2
134 скачок мужской род
склонность
updated gender id for word склонность with gender id 1
135 склонность женский род
скрип
updated gender id for word скрип with gender id 2
136 скрип мужской род
спальня
updated gender id for word спальня with gender id 1
137 спальня женский род
строгость
updated gender id for word строгость with gender id 1
138 строгость женский род
суп
updated gender id for word суп with gender id 2
139 суп мужской род
съёмка
updated gender id for word съёмка with gender id 1
140 съёмка женский род
сюрприз
updated gender id for word сюрприз with gender id 2
141 сюрприз мужской род
такт
updated gender id for word такт with gender id 2
142 такт мужской род
телескоп
updated gender id for word телескоп with gender id 2
143 телескоп мужской род
трон
updated gender id for word трон with gender id 2
144 трон мужской род
трос
updated gender id for word трос with gender id 2
145 трос мужской род
тщеславие
updated gender id for word тщеславие with gender id 3
146 тщеславие средний род
углубление
updated gender id for word углубление with gender id 3
147 углубление средний род
усталость
updated gender id for word усталость with gender id 1
148 усталость женский род
форточка
updated gender id for word форточка with gender id 1
149 форточка женский род
цыплёнок
updated gender id for word цыплёнок with gender id 2
150 цыплёнок мужской род
чек
updated gender id for word чек with gender id 2
151 чек мужской род
череп
updated gender id for word череп with gender id 2
152 череп мужской род
чулок
updated gender id for word чулок with gender id 2
153 чулок мужской род
шелест
updated gender id for word шелест with gender id 2
154 шелест мужской род
штамп
updated gender id for word штамп with gender id 2
155 штамп мужской род
штраф
updated gender id for word штраф with gender id 2
156 штраф мужской род
штурм
updated gender id for word штурм with gender id 2
157 штурм мужской род
эхо
updated gender id for word эхо with gender id 3
158 эхо средний род
яд
updated gender id for word яд with gender id 2
159 яд мужской род
арка
updated gender id for word арка with gender id 1
160 арка женский род
археолог
updated gender id for word археолог with gender id 2
161 археолог мужской род
афоризм
updated gender id for word афоризм with gender id 2
162 афоризм мужской род
балл
updated gender id for word балл with gender id 2
163 балл мужской род
бедняга
updated gender id for word бедняга with gender id 2
164 бедняга мужской и женский род
безделье
updated gender id for word безделье with gender id 3
165 безделье средний род
барак
updated gender id for word барак with gender id 2
166 барак мужской род
белка
updated gender id for word белка with gender id 1
167 белка женский род
блин
updated gender id for word блин with gender id 2
168 блин мужской род
библия
updated gender id for word библия with gender id 1
169 библия женский род
биология
updated gender id for word биология with gender id 1
170 биология женский род
булка
updated gender id for word булка with gender id 1
171 булка женский род
вдохновение
updated gender id for word вдохновение with gender id 3
172 вдохновение средний род
ведомость
updated gender id for word ведомость with gender id 1
173 ведомость женский род
веер
updated gender id for word веер with gender id 2
174 веер мужской род
вертолёт
updated gender id for word вертолёт with gender id 2
175 вертолёт мужской род
виноград
updated gender id for word виноград with gender id 2
176 виноград мужской род
водоём
updated gender id for word водоём with gender id 2
177 водоём мужской род
возмездие
updated gender id for word возмездие with gender id 3
178 возмездие средний род
восход
updated gender id for word восход with gender id 2
179 восход мужской род
всплеск
updated gender id for word всплеск with gender id 2
180 всплеск мужской род
высказывание
updated gender id for word высказывание with gender id 3
181 высказывание средний род
глубь
updated gender id for word глубь with gender id 1
182 глубь женский род
гостеприимство
updated gender id for word гостеприимство with gender id 3
183 гостеприимство средний род
декларация
updated gender id for word декларация with gender id 1
184 декларация женский род
доблесть
updated gender id for word доблесть with gender id 1
185 доблесть женский род
жадность
updated gender id for word жадность with gender id 1
186 жадность женский род
жук
updated gender id for word жук with gender id 2
187 жук мужской род
журналистика
updated gender id for word журналистика with gender id 1
188 журналистика женский род
законность
updated gender id for word законность with gender id 1
189 законность женский род
закуска
updated gender id for word закуска with gender id 1
190 закуска женский род
затея
updated gender id for word затея with gender id 1
191 затея женский род
звучание
updated gender id for word звучание with gender id 3
192 звучание средний род
зрелость
updated gender id for word зрелость with gender id 1
193 зрелость женский род
измена
updated gender id for word измена with gender id 1
194 измена женский род
инвалид
updated gender id for word инвалид with gender id 2
195 инвалид мужской род
инстанция
updated gender id for word инстанция with gender id 1
196 инстанция женский род
испуг
updated gender id for word испуг with gender id 2
197 испуг мужской род
квадрат
updated gender id for word квадрат with gender id 2
198 квадрат мужской род
колея
updated gender id for word колея with gender id 1
199 колея женский род
колпак
updated gender id for word колпак with gender id 2
200 колпак мужской род
коляска
updated gender id for word коляска with gender id 1
201 коляска женский род
ком
updated gender id for word ком with gender id 2
202 ком мужской род
конкуренция
updated gender id for word конкуренция with gender id 1
203 конкуренция женский род
контролёр
updated gender id for word контролёр with gender id 2
204 контролёр мужской род
кошмар
updated gender id for word кошмар with gender id 2
205 кошмар мужской род
лабиринт
updated gender id for word лабиринт with gender id 2
206 лабиринт мужской род
литр
updated gender id for word литр with gender id 2
207 литр мужской род
лысина
updated gender id for word лысина with gender id 1
208 лысина женский род
матрос
updated gender id for word матрос with gender id 2
209 матрос мужской род
медикамент
updated gender id for word медикамент with gender id 2
210 медикамент мужской род
меч
updated gender id for word меч with gender id 2
211 меч мужской род
мрак
updated gender id for word мрак with gender id 2
212 мрак мужской род
мыслитель
updated gender id for word мыслитель with gender id 2
213 мыслитель мужской род
нажим
updated gender id for word нажим with gender id 2
214 нажим мужской род
насекомое
updated gender id for word насекомое with gender id 3
215 насекомое средний род
недовольство
updated gender id for word недовольство with gender id 3
216 недовольство средний род
нерешительность
updated gender id for word нерешительность with gender id 1
217 нерешительность женский род
оговорка
updated gender id for word оговорка with gender id 1
218 оговорка женский род
осмотр
updated gender id for word осмотр with gender id 2
219 осмотр мужской род
откровенность
updated gender id for word откровенность with gender id 1
220 откровенность женский род
отлив
updated gender id for word отлив with gender id 2
221 отлив мужской род
погром
updated gender id for word погром with gender id 2
222 погром мужской род
полушарие
updated gender id for word полушарие with gender id 3
223 полушарие средний род
полюс
updated gender id for word полюс with gender id 2
224 полюс мужской род
порция
updated gender id for word порция with gender id 1
225 порция женский род
почёт
updated gender id for word почёт with gender id 2
226 почёт мужской род
пренебрежение
updated gender id for word пренебрежение with gender id 3
227 пренебрежение средний род
привлечение
updated gender id for word привлечение with gender id 3
228 привлечение средний род
прилив
updated gender id for word прилив with gender id 2
229 прилив мужской род
пристрастие
updated gender id for word пристрастие with gender id 3
230 пристрастие средний род
приток
updated gender id for word приток with gender id 2
231 приток мужской род
проба
updated gender id for word проба with gender id 1
232 проба женский род
продвижение
updated gender id for word продвижение with gender id 3
233 продвижение средний род
проникновение
updated gender id for word проникновение with gender id 3
234 проникновение средний род
пружина
updated gender id for word пружина with gender id 1
235 пружина женский род
пульт
updated gender id for word пульт with gender id 2
236 пульт мужской род
пытка
updated gender id for word пытка with gender id 1
237 пытка женский род
равнодушие
updated gender id for word равнодушие with gender id 3
238 равнодушие средний род
разоблачение
updated gender id for word разоблачение with gender id 3
239 разоблачение средний род
растерянность
updated gender id for word растерянность with gender id 1
240 растерянность женский род
рецепт
updated gender id for word рецепт with gender id 2
241 рецепт мужской род
святыня
updated gender id for word святыня with gender id 1
242 святыня женский род
символ
updated gender id for word символ with gender id 2
243 символ мужской род
сирота
updated gender id for word сирота with gender id 2
244 сирота мужской род
следователь
updated gender id for word следователь with gender id 2
245 следователь мужской род
служение
updated gender id for word служение with gender id 3
246 служение средний род
суждение
updated gender id for word суждение with gender id 3
247 суждение средний род
супруг
updated gender id for word супруг with gender id 2
248 супруг мужской род
творец
updated gender id for word творец with gender id 2
249 творец мужской род
толкование
updated gender id for word толкование with gender id 3
250 толкование средний род
тонкость
updated gender id for word тонкость with gender id 1
251 тонкость женский род
трость
updated gender id for word трость with gender id 1
252 трость женский род
уклон
updated gender id for word уклон with gender id 2
253 уклон мужской род
устье
updated gender id for word устье with gender id 3
254 устье средний род
утрата
updated gender id for word утрата with gender id 1
255 утрата женский род
участь
updated gender id for word участь with gender id 1
256 участь женский род
фаза
updated gender id for word фаза with gender id 1
257 фаза женский род
федерация
updated gender id for word федерация with gender id 1
258 федерация женский род
цитата
updated gender id for word цитата with gender id 1
259 цитата женский род
чулан
updated gender id for word чулан with gender id 2
260 чулан мужской род
шкатулка
updated gender id for word шкатулка with gender id 1
261 шкатулка женский род
шорох
updated gender id for word шорох with gender id 2
262 шорох мужской род
щётка
updated gender id for word щётка with gender id 1
263 щётка женский род
этикетка
updated gender id for word этикетка with gender id 1
264 этикетка женский род
юрист
updated gender id for word юрист with gender id 2
265 юрист мужской род
ягода
updated gender id for word ягода with gender id 1
266 ягода женский род
аналогия
updated gender id for word аналогия with gender id 1
267 аналогия женский род
аромат
updated gender id for word аромат with gender id 2
268 аромат мужской род
бас
updated gender id for word бас with gender id 2
269 бас мужской род
бездомный
updated gender id for word бездомный with gender id 2
270 бездомный мужской род
бессонница
updated gender id for word бессонница with gender id 1
271 бессонница женский род
благословение
updated gender id for word благословение with gender id 3
272 благословение средний род
вежливость
updated gender id for word вежливость with gender id 1
273 вежливость женский род
вена
updated gender id for word вена with gender id 1
274 вена женский род
варенье
updated gender id for word варенье with gender id 3
275 варенье средний род
ведьма
updated gender id for word ведьма with gender id 1
276 ведьма женский род
великолепие
updated gender id for word великолепие with gender id 3
277 великолепие средний род
венок
updated gender id for word венок with gender id 2
278 венок мужской род
вечность
updated gender id for word вечность with gender id 1
279 вечность женский род
вишня
updated gender id for word вишня with gender id 1
280 вишня женский род
выяснение
updated gender id for word выяснение with gender id 3
281 выяснение средний род
гармония
updated gender id for word гармония with gender id 1
282 гармония женский род
героизм
updated gender id for word героизм with gender id 2
283 героизм мужской род
гимн
updated gender id for word гимн with gender id 2
284 гимн мужской род
гипотеза
updated gender id for word гипотеза with gender id 1
285 гипотеза женский род
голосование
updated gender id for word голосование with gender id 3
286 голосование средний род
графин
updated gender id for word графин with gender id 2
287 графин мужской род
гуща
updated gender id for word гуща with gender id 1
288 гуща женский род
дефицит
updated gender id for word дефицит with gender id 2
289 дефицит мужской род
достаток
updated gender id for word достаток with gender id 2
290 достаток мужской род
значимость
updated gender id for word значимость with gender id 1
291 значимость женский род
исправление
updated gender id for word исправление with gender id 3
292 исправление средний род
истерика
updated gender id for word истерика with gender id 1
293 истерика женский род
канат
updated gender id for word канат with gender id 2
294 канат мужской род
кипяток
updated gender id for word кипяток with gender id 2
295 кипяток мужской род
клиника
updated gender id for word клиника with gender id 1
296 клиника женский род
коза
updated gender id for word коза with gender id 1
297 коза женский род
комар
updated gender id for word комар with gender id 2
298 комар мужской род
комбинезон
updated gender id for word комбинезон with gender id 2
299 комбинезон мужской род
комод
updated gender id for word комод with gender id 2
300 комод мужской род
конвейер
updated gender id for word конвейер with gender id 2
301 конвейер мужской род
концлагерь
updated gender id for word концлагерь with gender id 2
302 концлагерь мужской род
кончина
updated gender id for word кончина with gender id 1
303 кончина женский род
косточка
updated gender id for word косточка with gender id 1
304 косточка женский род
крах
updated gender id for word крах with gender id 2
305 крах мужской род
крошка
updated gender id for word крошка with gender id 1
306 крошка женский род
кузов
updated gender id for word кузов with gender id 2
307 кузов мужской род
культ
updated gender id for word культ with gender id 2
308 культ мужской род
линейка
updated gender id for word линейка with gender id 1
309 линейка женский род
монумент
updated gender id for word монумент with gender id 2
310 монумент мужской род
навоз
updated gender id for word навоз with gender id 2
311 навоз мужской род
обиход
updated gender id for word обиход with gender id 2
312 обиход мужской род
обложка
updated gender id for word обложка with gender id 1
313 обложка женский род
опаска
updated gender id for word опаска with gender id 1
314 опаска женский род
осложнение
updated gender id for word осложнение with gender id 3
315 осложнение средний род
отбор
updated gender id for word отбор with gender id 2
316 отбор мужской род
отрицание
updated gender id for word отрицание with gender id 3
317 отрицание средний род
панорама
updated gender id for word панорама with gender id 1
318 панорама женский род
парта
updated gender id for word парта with gender id 1
319 парта женский род
паутина
updated gender id for word паутина with gender id 1
320 паутина женский род
перевал
updated gender id for word перевал with gender id 2
321 перевал мужской род
перекрёсток
updated gender id for word перекрёсток with gender id 2
322 перекрёсток мужской род
повествование
updated gender id for word повествование with gender id 3
323 повествование средний род
поддержание
updated gender id for word поддержание with gender id 3
324 поддержание средний род
подступ
updated gender id for word подступ with gender id 2
325 подступ мужской род
поединок
updated gender id for word поединок with gender id 2
326 поединок мужской род
помеха
updated gender id for word помеха with gender id 1
327 помеха женский род
понедельник
updated gender id for word понедельник with gender id 2
328 понедельник мужской род
преграда
updated gender id for word преграда with gender id 3
329 преграда средний род
предисловие
updated gender id for word предисловие with gender id 3
330 предисловие средний род
приз
updated gender id for word приз with gender id 2
331 приз мужской род
примета
updated gender id for word примета with gender id 1
332 примета женский род
причёска
updated gender id for word причёска with gender id 1
333 причёска женский род
простыня
updated gender id for word простыня with gender id 1
334 простыня женский род
протокол
updated gender id for word протокол with gender id 2
335 протокол мужской род
процедура
updated gender id for word процедура with gender id 1
336 процедура женский род
пульс
updated gender id for word пульс with gender id 2
337 пульс мужской род
пустырь
updated gender id for word пустырь with gender id 2
338 пустырь мужской род
разбег
updated gender id for word разбег with gender id 2
339 разбег мужской род
разновидность
updated gender id for word разновидность with gender id 1
340 разновидность женский род
раса
updated gender id for word раса with gender id 1
341 раса женский род
розыгрыш
updated gender id for word розыгрыш with gender id 2
342 розыгрыш мужской род
седина
updated gender id for word седина with gender id 1
343 седина женский род
секция
updated gender id for word секция with gender id 1
344 секция женский род
сессия
updated gender id for word сессия with gender id 1
345 сессия женский род
слияние
updated gender id for word слияние with gender id 3
346 слияние средний род
смола
updated gender id for word смола with gender id 1
347 смола женский род
совпадение
updated gender id for word совпадение with gender id 3
348 совпадение средний род
спирт
updated gender id for word спирт with gender id 2
349 спирт мужской род
стон
updated gender id for word стон with gender id 2
350 стон мужской род
счёты
351 счёты множественное число
таракан
updated gender id for word таракан with gender id 2
352 таракан мужской род
тесто
updated gender id for word тесто with gender id 3
353 тесто средний род
толчок
updated gender id for word толчок with gender id 2
354 толчок мужской род
тренировка
updated gender id for word тренировка with gender id 1
355 тренировка женский род
треть
updated gender id for word треть with gender id 1
356 треть женский род
тумба
updated gender id for word тумба with gender id 1
357 тумба женский род
удочка
updated gender id for word удочка with gender id 1
358 удочка женский род
умысел
updated gender id for word умысел with gender id 2
359 умысел мужской род
уют
updated gender id for word уют with gender id 2
360 уют мужской род
фасад
updated gender id for word фасад with gender id 2
361 фасад мужской род
чудовище
updated gender id for word чудовище with gender id 3
362 чудовище средний род
шахтёр
updated gender id for word шахтёр with gender id 2
363 шахтёр мужской род
шеренга
updated gender id for word шеренга with gender id 1
364 шеренга женский род
штора
updated gender id for word штора with gender id 1
365 штора женский род
акт
updated gender id for word акт with gender id 2
366 акт мужской род
аргумент
updated gender id for word аргумент with gender id 2
367 аргумент мужской род
астрономия
updated gender id for word астрономия with gender id 1
368 астрономия женский род
бар
updated gender id for word бар with gender id 2
369 бар мужской род
башмак
updated gender id for word башмак with gender id 2
370 башмак мужской род
бешенство
updated gender id for word бешенство with gender id 2
371 бешенство мужской род
биолог
updated gender id for word биолог with gender id 2
372 биолог мужской род
биржа
updated gender id for word биржа with gender id 1
373 биржа женский род
бланк
updated gender id for word бланк with gender id 2
374 бланк мужской род
боеприпасы
375 боеприпасы множественное число
валюта
updated gender id for word валюта with gender id 1
376 валюта женский род
версия
updated gender id for word версия with gender id 1
377 версия женский род
взятие
updated gender id for word взятие with gender id 3
378 взятие средний род
взятка
updated gender id for word взятка with gender id 1
379 взятка женский род
водоросль
updated gender id for word водоросль with gender id 1
380 водоросль женский род
вражда
updated gender id for word вражда with gender id 1
381 вражда женский род
выплата
updated gender id for word выплата with gender id 1
382 выплата женский род
гавань
updated gender id for word гавань with gender id 1
383 гавань женский род
герб
updated gender id for word герб with gender id 2
384 герб мужской род
гимнастика
updated gender id for word гимнастика with gender id 1
385 гимнастика женский род
голубчик
updated gender id for word голубчик with gender id 2
386 голубчик мужской род
386 голубчик ла́сковое обраще́ние к мужчи́не
гонорар
updated gender id for word гонорар with gender id 2
387 гонорар мужской род
дерзость
updated gender id for word дерзость with gender id 1
388 дерзость женский род
доброта
updated gender id for word доброта with gender id 1
389 доброта женский род
достоверность
updated gender id for word достоверность with gender id 1
390 достоверность женский род
ёмкость
updated gender id for word ёмкость with gender id 1
391 ёмкость женский род
забвение
updated gender id for word забвение with gender id 3
392 забвение средний род
загар
updated gender id for word загар with gender id 2
393 загар мужской род
задержка
updated gender id for word задержка with gender id 1
394 задержка женский род
зять
updated gender id for word зять with gender id 2
395 зять мужской род
буржуазия
updated gender id for word буржуазия with gender id 1
396 буржуазия женский род
алмаз
updated gender id for word алмаз with gender id 2
397 алмаз мужской род
сосуд
updated gender id for word сосуд with gender id 2
398 сосуд мужской род
чайка
updated gender id for word чайка with gender id 1
399 чайка женский род
кислота
updated gender id for word кислота with gender id 1
400 кислота женский род
консул
updated gender id for word консул with gender id 2
401 консул мужской род
майор
updated gender id for word майор with gender id 2
402 майор мужской род
шарф
updated gender id for word шарф with gender id 2
403 шарф мужской род
эксперт
updated gender id for word эксперт with gender id 2
404 эксперт мужской род
гипс
updated gender id for word гипс with gender id 2
405 гипс мужской род
заготовка
updated gender id for word заготовка with gender id 1
406 заготовка женский род
нравственность
updated gender id for word нравственность with gender id 1
407 нравственность женский род
длительность
updated gender id for word длительность with gender id 1
408 длительность женский род
мишень
updated gender id for word мишень with gender id 1
409 мишень женский род
трасса
updated gender id for word трасса with gender id 1
410 трасса женский род
вальс
updated gender id for word вальс with gender id 2
411 вальс мужской род
астроном
updated gender id for word астроном with gender id 2
412 астроном мужской род
кодекс
updated gender id for word кодекс with gender id 2
413 кодекс мужской род
эфир
updated gender id for word эфир with gender id 2
414 эфир мужской род
зола
updated gender id for word зола with gender id 1
415 зола женский род
концентрация
updated gender id for word концентрация with gender id 1
416 концентрация женский род
пропуск
updated gender id for word пропуск with gender id 2
417 пропуск мужской род
осадок
updated gender id for word осадок with gender id 2
418 осадок мужской род
ячейка
updated gender id for word ячейка with gender id 1
419 ячейка женский род
горничная
updated gender id for word горничная with gender id 1
420 горничная женский род
терраса
updated gender id for word терраса with gender id 1
421 терраса женский род
хрусталь
updated gender id for word хрусталь with gender id 2
422 хрусталь мужской род
ширма
updated gender id for word ширма with gender id 1
423 ширма женский род
тренер
updated gender id for word тренер with gender id 2
424 тренер мужской род
гранит
updated gender id for word гранит with gender id 2
425 гранит мужской род
кролик
updated gender id for word кролик with gender id 2
426 кролик мужской род
426 кролик зоология
водород
updated gender id for word водород with gender id 2
427 водород мужской род
очко
updated gender id for word очко with gender id 3
428 очко средний род
рудник
updated gender id for word рудник with gender id 2
429 рудник мужской род
футбол
updated gender id for word футбол with gender id 2
430 футбол мужской род
потребление
updated gender id for word потребление with gender id 3
431 потребление средний род
руда
updated gender id for word руда with gender id 1
432 руда женский род
бабка
updated gender id for word бабка with gender id 1
433 бабка женский род
кукуруза
updated gender id for word кукуруза with gender id 1
434 кукуруза женский род
фланг
updated gender id for word фланг with gender id 2
435 фланг мужской род
линза
updated gender id for word линза with gender id 1
436 линза женский род
агитатор
updated gender id for word агитатор with gender id 2
437 агитатор мужской род
стабильность
updated gender id for word стабильность with gender id 1
438 стабильность женский род
гимназист
updated gender id for word гимназист with gender id 2
439 гимназист мужской род
updated gender id for word гимназист with gender id 1
439 гимназист женский род
изумруд
updated gender id for word изумруд with gender id 2
440 изумруд мужской род
физкультура
updated gender id for word физкультура with gender id 1
441 физкультура женский род
караван
updated gender id for word караван with gender id 2
442 караван мужской род
крона
updated gender id for word крона with gender id 1
443 крона женский род
механика
updated gender id for word механика with gender id 1
444 механика женский род
павильон
updated gender id for word павильон with gender id 2
445 павильон мужской род
патруль
updated gender id for word патруль with gender id 2
446 патруль мужской род
скульптор
updated gender id for word скульптор with gender id 2
447 скульптор мужской род
штык
updated gender id for word штык with gender id 2
448 штык мужской род
альбом
updated gender id for word альбом with gender id 2
449 альбом мужской род
грузчик
updated gender id for word грузчик with gender id 2
450 грузчик мужской род
гамма
updated gender id for word гамма with gender id 1
451 гамма женский род
карниз
updated gender id for word карниз with gender id 2
452 карниз мужской род
опрос
updated gender id for word опрос with gender id 2
453 опрос мужской род
перевозка
updated gender id for word перевозка with gender id 1
454 перевозка женский род
раковина
updated gender id for word раковина with gender id 1
455 раковина женский род
семечко
updated gender id for word семечко with gender id 3
456 семечко средний род
сера
updated gender id for word сера with gender id 1
457 сера женский род
сметана
updated gender id for word сметана with gender id 1
458 сметана женский род
заболевание
updated gender id for word заболевание with gender id 3
459 заболевание средний род
инспекция
updated gender id for word инспекция with gender id 1
460 инспекция женский род
лишение
updated gender id for word лишение with gender id 3
461 лишение средний род
производитель
updated gender id for word производитель with gender id 2
462 производитель мужской род
феномен
updated gender id for word феномен with gender id 2
463 феномен мужской род
радист
updated gender id for word радист with gender id 2
464 радист мужской род
updated gender id for word радист with gender id 1
464 радист женский род
хам
updated gender id for word хам with gender id 2
465 хам мужской род
география
updated gender id for word география with gender id 1
466 география женский род
конюшня
updated gender id for word конюшня with gender id 1
467 конюшня женский род
крупа
updated gender id for word крупа with gender id 1
468 крупа женский род
лягушка
updated gender id for word лягушка with gender id 1
469 лягушка женский род
мыс
updated gender id for word мыс with gender id 2
470 мыс мужской род
плот
updated gender id for word плот with gender id 2
471 плот мужской род
принуждение
updated gender id for word принуждение with gender id 3
472 принуждение средний род
рюкзак
updated gender id for word рюкзак with gender id 2
473 рюкзак мужской род
сострадание
updated gender id for word сострадание with gender id 3
474 сострадание средний род
старт
updated gender id for word старт with gender id 2
475 старт мужской род
катушка
updated gender id for word катушка with gender id 1
476 катушка женский род
котлета
updated gender id for word котлета with gender id 1
477 котлета женский род
микрофон
updated gender id for word микрофон with gender id 2
478 микрофон мужской род
обострение
updated gender id for word обострение with gender id 3
479 обострение средний род
пират
updated gender id for word пират with gender id 2
480 пират мужской род
плавки
481 плавки множественное число
пурга
updated gender id for word пурга with gender id 1
482 пурга женский род
репортёр
updated gender id for word репортёр with gender id 2
483 репортёр мужской род
секретарша
updated gender id for word секретарша with gender id 1
484 секретарша женский род
шпага
updated gender id for word шпага with gender id 1
485 шпага женский род
эволюция
updated gender id for word эволюция with gender id 1
486 эволюция женский род
антисемитизм
updated gender id for word антисемитизм with gender id 2
487 антисемитизм мужской род
боб
updated gender id for word боб with gender id 2
488 боб мужской род
булавка
updated gender id for word булавка with gender id 1
489 булавка женский род
милосердие
updated gender id for word милосердие with gender id 3
490 милосердие средний род
карусель
updated gender id for word карусель with gender id 1
491 карусель женский род
кондиционер
updated gender id for word кондиционер with gender id 2
492 кондиционер мужской род
чутьё
updated gender id for word чутьё with gender id 3
493 чутьё средний род
отсек
updated gender id for word отсек with gender id 2
494 отсек мужской род
скула
updated gender id for word скула with gender id 1
495 скула женский род
резьба
updated gender id for word резьба with gender id 1
496 резьба женский род
туалет
updated gender id for word туалет with gender id 2
497 туалет мужской род
аванс
updated gender id for word аванс with gender id 2
498 аванс мужской род
кличка
updated gender id for word кличка with gender id 1
499 кличка женский род
колокольчик
updated gender id for word колокольчик with gender id 2
500 колокольчик мужской род
композиция
updated gender id for word композиция with gender id 1
501 композиция женский род
контур
updated gender id for word контур with gender id 2
502 контур мужской род
обновление
updated gender id for word обновление with gender id 3
503 обновление средний род
расписание
updated gender id for word расписание with gender id 3
504 расписание средний род
сажа
updated gender id for word сажа with gender id 1
505 сажа женский род
светило
updated gender id for word светило with gender id 3
506 светило средний род
слива
updated gender id for word слива with gender id 1
507 слива женский род
чувствительность
updated gender id for word чувствительность with gender id 1
508 чувствительность женский род
фара
updated gender id for word фара with gender id 1
509 фара женский род
шов
updated gender id for word шов with gender id 2
510 шов мужской род
шрам
updated gender id for word шрам with gender id 2
511 шрам мужской род
эмигрант
updated gender id for word эмигрант with gender id 2
512 эмигрант мужской род
бес
updated gender id for word бес with gender id 2
513 бес мужской род
беседка
updated gender id for word беседка with gender id 1
514 беседка женский род
кинотеатр
updated gender id for word кинотеатр with gender id 2
515 кинотеатр мужской род
доступ
updated gender id for word доступ with gender id 2
516 доступ мужской род
объект
updated gender id for word объект with gender id 2
517 объект мужской род
диктатор
updated gender id for word диктатор with gender id 2
518 диктатор мужской род
катер
updated gender id for word катер with gender id 2
519 катер мужской род
тюк
updated gender id for word тюк with gender id 2
520 тюк мужской род
лепёшка
updated gender id for word лепёшка with gender id 1
521 лепёшка женский род
максимум
updated gender id for word максимум with gender id 2
522 максимум мужской род
оригинал
updated gender id for word оригинал with gender id 2
523 оригинал мужской род
ориентация
updated gender id for word ориентация with gender id 1
524 ориентация женский род
рукоятка
updated gender id for word рукоятка with gender id 1
525 рукоятка женский род
серп
updated gender id for word серп with gender id 2
526 серп мужской род
сирень
updated gender id for word сирень with gender id 1
527 сирень женский род
соприкосновение
updated gender id for word соприкосновение with gender id 3
528 соприкосновение средний род
сплав
updated gender id for word сплав with gender id 2
529 сплав мужской род
срез
updated gender id for word срез with gender id 2
530 срез мужской род
сыр
updated gender id for word сыр with gender id 2
531 сыр мужской род
трюм
updated gender id for word трюм with gender id 2
532 трюм мужской род
имение
updated gender id for word имение with gender id 3
533 имение средний род
инстинкт
updated gender id for word инстинкт with gender id 2
534 инстинкт мужской род
казарма
updated gender id for word казарма with gender id 1
535 казарма женский род
кастрюля
updated gender id for word кастрюля with gender id 1
536 кастрюля женский род
кашель
updated gender id for word кашель with gender id 2
537 кашель мужской род
кинжал
updated gender id for word кинжал with gender id 2
538 кинжал мужской род
кишка
updated gender id for word кишка with gender id 1
539 кишка женский род
клинок
updated gender id for word клинок with gender id 2
540 клинок мужской род
клоун
updated gender id for word клоун with gender id 2
541 клоун мужской род
клубок
updated gender id for word клубок with gender id 2
542 клубок мужской род
колодец
updated gender id for word колодец with gender id 2
543 колодец мужской род
колючка
updated gender id for word колючка with gender id 1
544 колючка женский род
комплект
updated gender id for word комплект with gender id 2
545 комплект мужской род
копьё
updated gender id for word копьё with gender id 3
546 копьё средний род
космонавт
updated gender id for word космонавт with gender id 2
547 космонавт мужской род
краб
updated gender id for word краб with gender id 2
548 краб мужской род
магистраль
updated gender id for word магистраль with gender id 1
549 магистраль женский род
магнит
updated gender id for word магнит with gender id 2
550 магнит мужской род
маскировка
updated gender id for word маскировка with gender id 1
551 маскировка женский род
мах
updated gender id for word мах with gender id 2
552 мах мужской род
медик
updated gender id for word медик with gender id 2
553 медик мужской род
месть
updated gender id for word месть with gender id 1
554 месть женский род
миф
updated gender id for word миф with gender id 2
555 миф мужской род
мобилизация
updated gender id for word мобилизация with gender id 1
556 мобилизация женский род
морщина
updated gender id for word морщина with gender id 1
557 морщина женский род
мох
updated gender id for word мох with gender id 2
558 мох мужской род
муравей
updated gender id for word муравей with gender id 2
559 муравей мужской род
