один
тысяча
несколько
сколько
оба
миллион
-----
tag: ord
tag: card
tag_id: 0
006 миллион мужской род
миллиард
-----
tag: ord
tag: card
tag_id: 0
007 миллиард мужской род
двое
-----
tag: ord
tag: card
tag_id: 0
008 двое n coll
-----
tag: ord
tag: card
tag_id: 0
008 двое употр. с сущ. м. или о́бщего р., а также с сущ. во мн. ч.
трое
одиннадцать
четверо
-----
tag: ord
tag: card
tag_id: 0
011 четверо собир.
миллиметр
-----
tag: ord
tag: card
tag_id: 0
012 миллиметр мужской род
миллионный
-----
tag: ord
tag: card
tag_id: 1
added tag 1 to word миллионный
013 миллионный ordinal
сороковой
-----
tag: ord
tag: card
tag_id: 1
added tag 1 to word сороковой
014 сороковой ordinal
тридцатый
-----
tag: ord
tag: card
tag_id: 1
added tag 1 to word тридцатый
015 тридцатый ordinal
шестьсот
-----
tag: ord
tag: card
tag_id: 2
added tag 2 to word шестьсот
016 шестьсот cardinal
семьсот
-----
tag: ord
tag: card
tag_id: 2
added tag 2 to word семьсот
017 семьсот cardinal
шестнадцатый
-----
tag: ord
tag: card
tag_id: 0
018 шестнадцатый мужской род
-----
tag: ord
tag: card
tag_id: 1
added tag 1 to word шестнадцатый
018 шестнадцатый ordinal
восемнадцатый
-----
tag: ord
tag: card
tag_id: 1
added tag 1 to word восемнадцатый
019 восемнадцатый ordinal
-----
tag: ord
tag: card
tag_id: 0
019 восемнадцатый мужской род
девятнадцатый
-----
tag: ord
tag: card
tag_id: 1
added tag 1 to word девятнадцатый
020 девятнадцатый ordinal
